000 (10110.000.000) 08/11 22:16:31 Job submitted from host: <200.17.30.82:9618?addrs=200.17.30.82-9618+[2001-12d0-8120--82]-9618&noUDP&sock=1779_d312_3>
...
000 (10110.001.000) 08/11 22:16:31 Job submitted from host: <200.17.30.82:9618?addrs=200.17.30.82-9618+[2001-12d0-8120--82]-9618&noUDP&sock=1779_d312_3>
...
000 (10110.002.000) 08/11 22:16:31 Job submitted from host: <200.17.30.82:9618?addrs=200.17.30.82-9618+[2001-12d0-8120--82]-9618&noUDP&sock=1779_d312_3>
...
000 (10110.003.000) 08/11 22:16:31 Job submitted from host: <200.17.30.82:9618?addrs=200.17.30.82-9618+[2001-12d0-8120--82]-9618&noUDP&sock=1779_d312_3>
...
000 (10110.004.000) 08/11 22:16:31 Job submitted from host: <200.17.30.82:9618?addrs=200.17.30.82-9618+[2001-12d0-8120--82]-9618&noUDP&sock=1779_d312_3>
...
000 (10110.005.000) 08/11 22:16:31 Job submitted from host: <200.17.30.82:9618?addrs=200.17.30.82-9618+[2001-12d0-8120--82]-9618&noUDP&sock=1779_d312_3>
...
000 (10110.006.000) 08/11 22:16:31 Job submitted from host: <200.17.30.82:9618?addrs=200.17.30.82-9618+[2001-12d0-8120--82]-9618&noUDP&sock=1779_d312_3>
...
000 (10110.007.000) 08/11 22:16:31 Job submitted from host: <200.17.30.82:9618?addrs=200.17.30.82-9618+[2001-12d0-8120--82]-9618&noUDP&sock=1779_d312_3>
...
000 (10110.008.000) 08/11 22:16:31 Job submitted from host: <200.17.30.82:9618?addrs=200.17.30.82-9618+[2001-12d0-8120--82]-9618&noUDP&sock=1779_d312_3>
...
000 (10110.009.000) 08/11 22:16:31 Job submitted from host: <200.17.30.82:9618?addrs=200.17.30.82-9618+[2001-12d0-8120--82]-9618&noUDP&sock=1779_d312_3>
...
001 (10110.000.000) 08/11 22:16:35 Job executing on host: <200.17.30.172:9618?addrs=200.17.30.172-9618+[2001-12d0-8120--172]-9618&noUDP&sock=1988_2e5d_3>
...
001 (10110.004.000) 08/11 22:16:35 Job executing on host: <200.17.30.173:9618?addrs=200.17.30.173-9618+[2001-12d0-8120--173]-9618&noUDP&sock=2019_71cd_3>
...
001 (10110.001.000) 08/11 22:16:35 Job executing on host: <200.17.30.180:9618?addrs=200.17.30.180-9618+[2001-12d0-8120--180]-9618&noUDP&sock=1987_7ec5_3>
...
001 (10110.003.000) 08/11 22:16:35 Job executing on host: <200.17.30.171:9618?addrs=200.17.30.171-9618+[2001-12d0-8120--171]-9618&noUDP&sock=1995_fb87_3>
...
001 (10110.005.000) 08/11 22:16:35 Job executing on host: <200.17.30.173:9618?addrs=200.17.30.173-9618+[2001-12d0-8120--173]-9618&noUDP&sock=2019_71cd_3>
...
001 (10110.002.000) 08/11 22:16:35 Job executing on host: <200.17.30.196:9618?addrs=200.17.30.196-9618+[2001-12d0-8120--196]-9618&noUDP&sock=1950_1dc4_3>
...
001 (10110.006.000) 08/11 22:16:35 Job executing on host: <200.17.30.171:9618?addrs=200.17.30.171-9618+[2001-12d0-8120--171]-9618&noUDP&sock=1995_fb87_3>
...
001 (10110.007.000) 08/11 22:16:35 Job executing on host: <200.17.30.173:9618?addrs=200.17.30.173-9618+[2001-12d0-8120--173]-9618&noUDP&sock=2019_71cd_3>
...
001 (10110.008.000) 08/11 22:16:36 Job executing on host: <200.17.30.173:9618?addrs=200.17.30.173-9618+[2001-12d0-8120--173]-9618&noUDP&sock=2019_71cd_3>
...
006 (10110.007.000) 08/11 22:16:44 Image size of job updated: 980
	1  -  MemoryUsage of job (MB)
	980  -  ResidentSetSize of job (KB)
...
006 (10110.006.000) 08/11 22:16:44 Image size of job updated: 6980
	7  -  MemoryUsage of job (MB)
	6460  -  ResidentSetSize of job (KB)
...
006 (10110.008.000) 08/11 22:16:44 Image size of job updated: 800
	1  -  MemoryUsage of job (MB)
	800  -  ResidentSetSize of job (KB)
...
006 (10110.000.000) 08/11 22:16:44 Image size of job updated: 66124
	26  -  MemoryUsage of job (MB)
	26324  -  ResidentSetSize of job (KB)
...
006 (10110.001.000) 08/11 22:16:44 Image size of job updated: 90736
	39  -  MemoryUsage of job (MB)
	39584  -  ResidentSetSize of job (KB)
...
006 (10110.004.000) 08/11 22:16:44 Image size of job updated: 1440
	2  -  MemoryUsage of job (MB)
	1312  -  ResidentSetSize of job (KB)
...
006 (10110.005.000) 08/11 22:16:44 Image size of job updated: 1748
	2  -  MemoryUsage of job (MB)
	1748  -  ResidentSetSize of job (KB)
...
006 (10110.003.000) 08/11 22:16:44 Image size of job updated: 40732
	27  -  MemoryUsage of job (MB)
	27052  -  ResidentSetSize of job (KB)
...
006 (10110.002.000) 08/11 22:16:44 Image size of job updated: 876
	1  -  MemoryUsage of job (MB)
	876  -  ResidentSetSize of job (KB)
...
001 (10110.009.000) 08/11 22:17:40 Job executing on host: <200.17.30.211:9618?addrs=200.17.30.211-9618+[2001-12d0-8120--211]-9618&noUDP&sock=2489_d350_3>
...
006 (10110.009.000) 08/11 22:17:49 Image size of job updated: 604
	1  -  MemoryUsage of job (MB)
	604  -  ResidentSetSize of job (KB)
...
006 (10110.006.000) 08/11 22:21:44 Image size of job updated: 869484
	765  -  MemoryUsage of job (MB)
	783004  -  ResidentSetSize of job (KB)
...
006 (10110.007.000) 08/11 22:21:44 Image size of job updated: 831020
	543  -  MemoryUsage of job (MB)
	555552  -  ResidentSetSize of job (KB)
...
006 (10110.008.000) 08/11 22:21:44 Image size of job updated: 817632
	658  -  MemoryUsage of job (MB)
	673568  -  ResidentSetSize of job (KB)
...
006 (10110.000.000) 08/11 22:21:45 Image size of job updated: 947424
	764  -  MemoryUsage of job (MB)
	781636  -  ResidentSetSize of job (KB)
...
006 (10110.001.000) 08/11 22:21:45 Image size of job updated: 953616
	770  -  MemoryUsage of job (MB)
	787812  -  ResidentSetSize of job (KB)
...
006 (10110.004.000) 08/11 22:21:45 Image size of job updated: 808448
	584  -  MemoryUsage of job (MB)
	597852  -  ResidentSetSize of job (KB)
...
006 (10110.003.000) 08/11 22:21:45 Image size of job updated: 859680
	763  -  MemoryUsage of job (MB)
	780356  -  ResidentSetSize of job (KB)
...
006 (10110.005.000) 08/11 22:21:45 Image size of job updated: 825520
	650  -  MemoryUsage of job (MB)
	664708  -  ResidentSetSize of job (KB)
...
006 (10110.002.000) 08/11 22:21:45 Image size of job updated: 953164
	769  -  MemoryUsage of job (MB)
	787360  -  ResidentSetSize of job (KB)
...
006 (10110.009.000) 08/11 22:22:49 Image size of job updated: 958452
	775  -  MemoryUsage of job (MB)
	792728  -  ResidentSetSize of job (KB)
...
006 (10110.006.000) 08/11 22:26:44 Image size of job updated: 878192
	774  -  MemoryUsage of job (MB)
	791712  -  ResidentSetSize of job (KB)
...
006 (10110.007.000) 08/11 22:26:44 Image size of job updated: 833956
	543  -  MemoryUsage of job (MB)
	555552  -  ResidentSetSize of job (KB)
...
006 (10110.008.000) 08/11 22:26:44 Image size of job updated: 817632
	658  -  MemoryUsage of job (MB)
	673600  -  ResidentSetSize of job (KB)
...
006 (10110.000.000) 08/11 22:26:45 Image size of job updated: 976848
	793  -  MemoryUsage of job (MB)
	811060  -  ResidentSetSize of job (KB)
...
006 (10110.004.000) 08/11 22:26:45 Image size of job updated: 827484
	584  -  MemoryUsage of job (MB)
	597852  -  ResidentSetSize of job (KB)
...
006 (10110.003.000) 08/11 22:26:45 Image size of job updated: 875292
	778  -  MemoryUsage of job (MB)
	795968  -  ResidentSetSize of job (KB)
...
006 (10110.005.000) 08/11 22:26:45 Image size of job updated: 830388
	650  -  MemoryUsage of job (MB)
	664708  -  ResidentSetSize of job (KB)
...
006 (10110.002.000) 08/11 22:26:45 Image size of job updated: 958152
	774  -  MemoryUsage of job (MB)
	792348  -  ResidentSetSize of job (KB)
...
006 (10110.009.000) 08/11 22:27:49 Image size of job updated: 964024
	780  -  MemoryUsage of job (MB)
	798220  -  ResidentSetSize of job (KB)
...
006 (10110.000.000) 08/11 22:29:35 Image size of job updated: 977104
	793  -  MemoryUsage of job (MB)
	811060  -  ResidentSetSize of job (KB)
...
005 (10110.000.000) 08/11 22:29:35 Job terminated.
	(1) Normal termination (return value 0)
		Usr 0 00:11:53, Sys 0 00:00:13  -  Run Remote Usage
		Usr 0 00:00:00, Sys 0 00:00:00  -  Run Local Usage
		Usr 0 00:11:53, Sys 0 00:00:13  -  Total Remote Usage
		Usr 0 00:00:00, Sys 0 00:00:00  -  Total Local Usage
	78755  -  Run Bytes Sent By Job
	6129  -  Run Bytes Received By Job
	78755  -  Total Bytes Sent By Job
	6129  -  Total Bytes Received By Job
	Partitionable Resources :    Usage  Request Allocated 
	   Cpus                 :     0.91        1         1 
	   Disk (KB)            :   673           7    235004 
	   Memory (MB)          :   793           1       128 
...
006 (10110.009.000) 08/11 22:30:00 Image size of job updated: 965460
	780  -  MemoryUsage of job (MB)
	798220  -  ResidentSetSize of job (KB)
...
005 (10110.009.000) 08/11 22:30:01 Job terminated.
	(1) Normal termination (return value 0)
		Usr 0 00:10:54, Sys 0 00:00:12  -  Run Remote Usage
		Usr 0 00:00:00, Sys 0 00:00:00  -  Run Local Usage
		Usr 0 00:10:54, Sys 0 00:00:12  -  Total Remote Usage
		Usr 0 00:00:00, Sys 0 00:00:00  -  Total Local Usage
	75833  -  Run Bytes Sent By Job
	6129  -  Run Bytes Received By Job
	75833  -  Total Bytes Sent By Job
	6129  -  Total Bytes Received By Job
	Partitionable Resources :    Usage  Request Allocated 
	   Cpus                 :     0.90        1         1 
	   Disk (KB)            :   670           7    845010 
	   Memory (MB)          :   780           1       128 
...
005 (10110.001.000) 08/11 22:31:31 Job terminated.
	(1) Normal termination (return value 0)
		Usr 0 00:12:47, Sys 0 00:00:16  -  Run Remote Usage
		Usr 0 00:00:00, Sys 0 00:00:00  -  Run Local Usage
		Usr 0 00:12:47, Sys 0 00:00:16  -  Total Remote Usage
		Usr 0 00:00:00, Sys 0 00:00:00  -  Total Local Usage
	78317  -  Run Bytes Sent By Job
	6129  -  Run Bytes Received By Job
	78317  -  Total Bytes Sent By Job
	6129  -  Total Bytes Received By Job
	Partitionable Resources :    Usage  Request Allocated 
	   Cpus                 :     0.91        1         1 
	   Disk (KB)            :   669           7    226363 
	   Memory (MB)          :   770           1       128 
...
006 (10110.008.000) 08/11 22:31:45 Image size of job updated: 823608
	658  -  MemoryUsage of job (MB)
	673600  -  ResidentSetSize of job (KB)
...
006 (10110.006.000) 08/11 22:31:45 Image size of job updated: 878816
	774  -  MemoryUsage of job (MB)
	792336  -  ResidentSetSize of job (KB)
...
006 (10110.007.000) 08/11 22:31:45 Image size of job updated: 867488
	543  -  MemoryUsage of job (MB)
	555552  -  ResidentSetSize of job (KB)
...
006 (10110.003.000) 08/11 22:31:46 Image size of job updated: 876276
	779  -  MemoryUsage of job (MB)
	796952  -  ResidentSetSize of job (KB)
...
006 (10110.005.000) 08/11 22:31:46 Image size of job updated: 831564
	650  -  MemoryUsage of job (MB)
	664708  -  ResidentSetSize of job (KB)
...
006 (10110.002.000) 08/11 22:31:46 Image size of job updated: 958152
	797  -  MemoryUsage of job (MB)
	815952  -  ResidentSetSize of job (KB)
...
005 (10110.007.000) 08/11 22:32:47 Job terminated.
	(1) Normal termination (return value 0)
		Usr 0 00:13:20, Sys 0 00:00:16  -  Run Remote Usage
		Usr 0 00:00:00, Sys 0 00:00:00  -  Run Local Usage
		Usr 0 00:13:20, Sys 0 00:00:16  -  Total Remote Usage
		Usr 0 00:00:00, Sys 0 00:00:00  -  Total Local Usage
	77505  -  Run Bytes Sent By Job
	6129  -  Run Bytes Received By Job
	77505  -  Total Bytes Sent By Job
	6129  -  Total Bytes Received By Job
	Partitionable Resources :    Usage  Request Allocated 
	   Cpus                 :     0.97        1         1 
	   Disk (KB)            :   671           7    238725 
	   Memory (MB)          :   543           1       128 
...
005 (10110.002.000) 08/11 22:35:06 Job terminated.
	(1) Normal termination (return value 0)
		Usr 0 00:16:33, Sys 0 00:00:20  -  Run Remote Usage
		Usr 0 00:00:00, Sys 0 00:00:00  -  Run Local Usage
		Usr 0 00:16:33, Sys 0 00:00:20  -  Total Remote Usage
		Usr 0 00:00:00, Sys 0 00:00:00  -  Total Local Usage
	77631  -  Run Bytes Sent By Job
	6129  -  Run Bytes Received By Job
	77631  -  Total Bytes Sent By Job
	6129  -  Total Bytes Received By Job
	Partitionable Resources :    Usage  Request Allocated 
	   Cpus                 :     0.97        1         1 
	   Disk (KB)            :   692           7    262282 
	   Memory (MB)          :   797           1       128 
...
006 (10110.006.000) 08/11 22:36:46 Image size of job updated: 879084
	774  -  MemoryUsage of job (MB)
	792336  -  ResidentSetSize of job (KB)
...
004 (10110.006.000) 08/11 22:38:46 Job was evicted.
	(0) Job was not checkpointed.
		Usr 0 00:20:22, Sys 0 00:00:17  -  Run Remote Usage
		Usr 0 00:00:00, Sys 0 00:00:00  -  Run Local Usage
	0  -  Run Bytes Sent By Job
	6129  -  Run Bytes Received By Job
	Partitionable Resources :    Usage  Request Allocated 
	   Cpus                 :     0.90        1         1 
	   Disk (KB)            :   112           7    224274 
	   Memory (MB)          :   774           1       128 
...
004 (10110.003.000) 08/11 22:38:46 Job was evicted.
	(0) Job was not checkpointed.
		Usr 0 00:20:26, Sys 0 00:00:15  -  Run Remote Usage
		Usr 0 00:00:00, Sys 0 00:00:00  -  Run Local Usage
	0  -  Run Bytes Sent By Job
	6129  -  Run Bytes Received By Job
	Partitionable Resources :    Usage  Request Allocated 
	   Cpus                 :     0.93        1         1 
	   Disk (KB)            :   113           7    224274 
	   Memory (MB)          :   779           1       128 
...
009 (10110.003.000) 08/11 22:38:46 Job was aborted by the user.
	via condor_rm (by user cdaumann)
...
009 (10110.006.000) 08/11 22:38:46 Job was aborted by the user.
	via condor_rm (by user cdaumann)
...
004 (10110.004.000) 08/11 22:38:46 Job was evicted.
	(0) Job was not checkpointed.
		Usr 0 00:19:41, Sys 0 00:00:18  -  Run Remote Usage
		Usr 0 00:00:00, Sys 0 00:00:00  -  Run Local Usage
	0  -  Run Bytes Sent By Job
	6129  -  Run Bytes Received By Job
	Partitionable Resources :    Usage  Request Allocated 
	   Cpus                 :     0.97        1         1 
	   Disk (KB)            :   111           7    238725 
	   Memory (MB)          :   584           1       128 
...
004 (10110.008.000) 08/11 22:38:46 Job was evicted.
	(0) Job was not checkpointed.
		Usr 0 00:19:25, Sys 0 00:00:21  -  Run Remote Usage
		Usr 0 00:00:00, Sys 0 00:00:00  -  Run Local Usage
	0  -  Run Bytes Sent By Job
	6129  -  Run Bytes Received By Job
	Partitionable Resources :    Usage  Request Allocated 
	   Cpus                 :     0.98        1         1 
	   Disk (KB)            :   114           7    238725 
	   Memory (MB)          :   658           1       128 
...
004 (10110.005.000) 08/11 22:38:46 Job was evicted.
	(0) Job was not checkpointed.
		Usr 0 00:19:25, Sys 0 00:00:18  -  Run Remote Usage
		Usr 0 00:00:00, Sys 0 00:00:00  -  Run Local Usage
	0  -  Run Bytes Sent By Job
	6129  -  Run Bytes Received By Job
	Partitionable Resources :    Usage  Request Allocated 
	   Cpus                 :     0.94        1         1 
	   Disk (KB)            :   113           7    238725 
	   Memory (MB)          :   650           1       128 
...
009 (10110.008.000) 08/11 22:38:46 Job was aborted by the user.
	via condor_rm (by user cdaumann)
...
009 (10110.004.000) 08/11 22:38:46 Job was aborted by the user.
	via condor_rm (by user cdaumann)
...
009 (10110.005.000) 08/11 22:38:46 Job was aborted by the user.
	via condor_rm (by user cdaumann)
...
