**************************************
**  sampawn019.if.usp.br
**************************************
** NFILES             8
** GENERATOR          Sh_2211
** PROCESS            Ztautau_p4355
** SAMPLE_TYPE        LH
** SELECTION TYPE     CFilterBVeto
** CAMPAIGN           mc16e
** BASE_DIR           /sampa/cdaumann/ATLAS/Ztautau
** ST_DIR             /sampa/cdaumann/ATLAS/Ztautau/DTA/dta/rel21/run/
** PG_DIR             /sampa/cdaumann/ATLAS/Ztautau/DTA/dta/rel21/build/
** RESULTS_DIR        /sampa/cdaumann/ATLAS/Ztautau/Results/Sh_2211/Ztautau_p4355/LH/CFilterBVeto/mc16e/2021-08-11
** IDX                9
** ICX                10113
** ID                 10
** FIRST_FILE         72
** WORK_DIR           /tmp/10113/EVNT_9
** DTA_CONDOR         /sampa/cdaumann/ATLAS/Ztautau/Condor/DTA-Condor.py
**************************************
Filesystem                   Size  Used Avail Use% Mounted on
/dev/mapper/vg1-root          79G  2,7G   76G   4% /
devtmpfs                      95G     0   95G   0% /dev
tmpfs                         95G  1,9M   95G   1% /dev/shm
tmpfs                         95G     0   95G   0% /sys/fs/cgroup
tmpfs                         95G  9,8M   95G   1% /run
/dev/mapper/vg1-var          837G   40G  798G   5% /tmp
/dev/mapper/vg1-home         146G   84G   63G  58% /home
/dev/sda3                    997M  328M  670M  33% /boot
cvmfs2                        40G   28G   12G  71% /cvmfs/config-egi.egi.eu
cvmfs2                        40G   28G   12G  71% /cvmfs/alice.cern.ch
cvmfs2                        40G   28G   12G  71% /cvmfs/atlas.cern.ch
cvmfs2                        40G   28G   12G  71% /cvmfs/atlas-condb.cern.ch
cvmfs2                        40G   28G   12G  71% /cvmfs/sft.cern.ch
cvmfs2                        40G   28G   12G  71% /cvmfs/sft-nightlies.cern.ch
cvmfs2                        40G   28G   12G  71% /cvmfs/atlas-nightlies.cern.ch
cvmfs2                        40G   28G   12G  71% /cvmfs/unpacked.cern.ch
cvmfs2                        40G   28G   12G  71% /cvmfs/alice-ocdb.cern.ch
cvmfs2                        40G   28G   12G  71% /cvmfs/lhcb.cern.ch
10.10.15.35:/sampa/cdaumann   19T  853G   18T   5% /sampa/cdaumann
10.10.15.90:/mnt/ATLAS_0      22T  128K   22T   1% /sampa/ATLAS_0
**************************************
 
-----------------------------------------------------
--------       Running directory Files       --------
-----------------------------------------------------
  
config.dat -> /sampa/cdaumann/ATLAS/Ztautau/DTA/dta/rel21/run//config.dat
DTA-Condor.py -> /sampa/cdaumann/ATLAS/Ztautau/Condor/DTA-Condor.py
Output  
settings.dat -> /sampa/cdaumann/ATLAS/Ztautau/DTA/dta/rel21/run//settings.dat
-----------------------------------------------------
 
 
-----------------------------------------------------
--------       Configuring AnalysisBase      --------
-----------------------------------------------------
[7mlsetup              [0m lsetup <tool1> [ <tool2> ...] (see lsetup -h):
[7m lsetup agis        [0m  ATLAS Grid Information System
[7m lsetup asetup      [0m  (or asetup) to setup an Athena release
[7m lsetup atlantis    [0m  Atlantis: event display
[7m lsetup eiclient    [0m  Event Index 
[7m lsetup emi         [0m  EMI: grid middleware user interface 
[7m lsetup ganga       [0m  Ganga: job definition and management client
[7m lsetup lcgenv      [0m  lcgenv: setup tools from cvmfs SFT repository
[7m lsetup panda       [0m  Panda: Production ANd Distributed Analysis
[7m lsetup pyami       [0m  pyAMI: ATLAS Metadata Interface python client
[7m lsetup root        [0m  ROOT data processing framework
[7m lsetup rucio       [0m  distributed data management system client
[7m lsetup views       [0m  Set up a full LCG release
[7m lsetup xcache      [0m  XRootD local proxy cache
[7m lsetup xrootd      [0m  XRootD data access
[7madvancedTools       [0m advanced tools menu
[7mdiagnostics         [0m diagnostic tools menu
[7mhelpMe              [0m more help
[7mprintMenu           [0m show this menu
[7mshowVersions        [0m show versions of installed software

************************************************************************
Requested:  asetup ... 
 Setting up [4masetup V02-00-26[0m ... 
Using AnalysisBase/21.2.168 [cmake] with platform x86_64-centos7-gcc8-opt
	at /cvmfs/atlas.cern.ch/repo/sw/software/21.2
Unchanged: COOL_ORA_ENABLE_ADAPTIVE_OPT=Y
 Setting up [4macm 0.1.26[0m ... 
>>>>>>>>>>>>>>>>>>>>>>>>> Information for user <<<<<<<<<<<<<<<<<<<<<<<<<
************************************************************************
 
----------------------------------------------------------------------------------------
 DTA-run Executable:  /sampa/cdaumann/ATLAS/Ztautau/DTA/dta/rel21/build/x86_64-centos7-gcc8-opt/bin/DTA-run
----------------------------------------------------------------------------------------
 
xAOD::Init                INFO    Environment initialised for data access
xAOD::LoadDictionaries    INFO    xAOD EDM dictionaries loaded
Package.UserCode         INFO     isMC? 1
Reading config file /tmp/10113/EVNT_9/config.dat
[ANALYSIS]:                                              [Global]
tools_grl_path:           /cvmfs/atlas.cern.ch/repo/sw/database/GroupData/GoodRunsLists/ [Global]
tools_grl_data15:         data15_13TeV/20170619/physics_25ns_21.0.19.xml [Global]
tools_grl_data16:         data16_13TeV/20180129/physics_25ns_21.0.19.xml [Global]
tools_grl_data17:         data17_13TeV/20180619/physics_25ns_Triggerno17e33prim.xml [Global]
tools_grl_data18:         data18_13TeV/20190318/physics_25ns_Triggerno17e33prim.xml [Global]
tools_grl_PassThrough:    false                          [Global]
tools_lcalc_data15:       data15_13TeV/20170619/PHYS_StandardGRL_All_Good_25ns_276262-284484_OflLumi-13TeV-008.root [Global]
tools_lcalc_data16:       data16_13TeV/20180129/PHYS_StandardGRL_All_Good_25ns_297730-311481_OflLumi-13TeV-009.root [Global]
tools_conf_data17:        data17_13TeV/20180619/physics_25ns_Triggerno17e33prim.actualMu.OflLumi-13TeV-010.root [Global]
tools_lcalc_data17:       data17_13TeV/20180619/physics_25ns_Triggerno17e33prim.lumicalc.OflLumi-13TeV-010.root [Global]
tools_conf_data18:        data18_13TeV/20190318/physics_25ns_Triggerno17e33prim.actualMu.OflLumi-13TeV-010.root [Global]
tools_lcalc_data18:       data18_13TeV/20190318/ilumicalc_histograms_None_348885-364292_OflLumi-13TeV-010.root [Global]
tools_prw_dsf_num:        1.0                            [Global]
tools_prw_dsf_denom:      1.03                           [Global]
tools_prw_dsf_denom_up:   0.99                           [Global]
tools_prw_dsf_denom_dn:   1.07                           [Global]
tools_olr_doElectrons:    true                           [Global]
tools_olr_doMuons:        true                           [Global]
tools_olr_doJets:         true                           [Global]
tools_olr_doTaus:         true                           [Global]
tools_olr_doPhotons:      false                          [Global]
tools_olr_doEleEle:       false                          [Global]
tools_olr_boostedLeptons: false                          [Global]
tools_olr_innerdr:        0.2                            [Global]
tools_olr_outerdr:        0.4                            [Global]
tools_olr_doMuPFJetOR:    true                           [Global]
tools_muon_eff_WorkingPoint: Medium                         [Global]
tools_muon_iso_WorkingPoint: FCLooseIso                     [Global]
tools_muon_ttva_WorkingPoint: TTVA                           [Global]
tools_muon_selection_MaxEta: 2.5                            [Global]
tools_muon_selection_MuQuality: 2                              [Global]
tools_electron_sfmap:     /cvmfs/atlas.cern.ch/repo/sw/database/GroupData/ElectronEfficiencyCorrection/2015_2017/rel21.2/Consolidation_September2018_v1/map1.txt [Global]
tools_electron_reco_RecoKey: Reconstruction                 [Global]
tools_electron_reco_CorrelationModel: SIMPLIFIED                     [Global]
tools_electron_id_IdKey:  Medium                         [Global]
tools_electron_id_CorrelationModel: SIMPLIFIED                     [Global]
tools_electron_iso_IdKey: Medium                         [Global]
tools_electron_iso_IsoKey: FCHighPtCaloOnly               [Global]
tools_electron_iso_CorrelationModel: SIMPLIFIED                     [Global]
tools_electron_trig_TriggerKey: SINGLE_E_2015_e24_lhmedium_L1EM20VH_OR_e60_lhmedium_OR_e120_lhloose_2016_2018_e26_lhtight_nod0_ivarloose_OR_e60_lhmedium_nod0_OR_e140_lhloose_nod0 [Global]
tools_electron_trig_IdKey: Medium                         [Global]
tools_electron_trig_IsoKey: FCHighPtCaloOnly               [Global]
tools_electron_trig_CorrelationModel: SIMPLIFIED                     [Global]
tools_electron_calib_ESModel: es2018_R21_v0                  [Global]
tools_electron_calib_decorrelationModel: 1NP_v1                         [Global]
tools_electron_calib_randomRunNumber: 123456                         [Global]
tools_electron_1elecr_iso_IdKey: Tight                          [Global]
tools_electron_1elecr_id_IdKey: Tight                          [Global]
tools_electron_1elecr_trig_IdKey: Tight                          [Global]
tools_iso_MuonWP:         FCLoose                        [Global]
tools_iso_ElectronWP:     FCHighPtCaloOnly               [Global]
tools_tau_ttm_WriteTruthTaus: true                           [Global]
tools_tau_config:         ConfigTauSelectionTool_looseJetID.dat #Config file with cuts for tau selection tool [Global]
tools_jet_clean_CutLevel: LooseBad                       [Global]
tools_jet_clean_DoUgly:   false                          [Global]
tools_jet_calib_JetCollection: AntiKt4EMPFlow                 [Global]
tools_jet_calib_ConfigFile: JES_MC16Recommendation_Consolidated_PFlow_Apr2019_Rel21.config [Global]
tools_jet_calib_CalibSequence_data: JetArea_Residual_EtaJES_GSC_Insitu [Global]
tools_jet_calib_CalibSequence_mc: JetArea_Residual_EtaJES_GSC_Smear [Global]
tools_jet_uncert_JetDefinition: AntiKt4EMPFlow                 [Global]
tools_jet_uncert_MCType:  MC16                           [Global]
tools_jet_uncert_ConfigFile: rel21/Fall2018/R4_CategoryReduction_FullJER.config [Global]
tools_jet_jvt_WorkingPoint: Medium                         [Global]
tools_jet_jvt_TruthJetContainerName: AntiKt4TruthDressedWZJets      [Global]
tools_jet_fjvt_OutputDec: passFJVT                       [Global]
tools_jet_fjvt_UseTightOP: true                           [Global]
tools_jet_fjvt_TruthJetContainerName: AntiKt4TruthDressedWZJets      [Global]
tools_flav_eff_TaggerName: DL1r                           [Global]
tools_flav_eff_MinPt:     20000.                         [Global]
tools_flav_eff_OperatingPoint: FixedCutBEff_77                [Global]
tools_flav_eff_JetAuthor: AntiKt4EMPFlowJets_BTagging201903 [Global]
tools_flav_eff_ScaleFactorFileName: xAODBTaggingEfficiency/13TeV/2020-21-13TeV-MC16-CDI-2021-04-16_v1.root [Global]
tools_flav_eff_ConeFlavourLabel: true                           [Global]
tools_flav_eff_EigenvectorReductionB: Tight                          [Global]
tools_flav_eff_EigenvectorReductionC: Tight                          [Global]
tools_flav_eff_EigenvectorReductionLight: Tight                          [Global]
tools_flav_sel_MaxEta:    2.5                            [Global]
tools_flav_sel_MinPt:     20000.                         [Global]
tools_flav_sel_FlvTagCutDefinitionsFileName: xAODBTaggingEfficiency/13TeV/2020-21-13TeV-MC16-CDI-2021-04-16_v1.root [Global]
tools_flav_sel_TaggerName: DL1r                           [Global]
tools_flav_sel_OperatingPoint: FixedCutBEff_77                [Global]
tools_flav_sel_JetAuthor: AntiKt4EMPFlowJets_BTagging201903 [Global]
tools_met_DoRemoveMuonJet: true                           [Global]
tools_met_JetRejectionDec: passFJVT                       [Global]
tools_met_JetSelection:   Tight                          [Global]
trig_xe15_0:              HLT_xe70                       [Global]
trig_xe16_0_0:            HLT_xe90_mht_L1XE50            [Global]
trig_xe16_1_0:            HLT_xe110_mht_L1XE50           [Global]
trig_xe17_0:              HLT_xe110_pufit_L1XE55         [Global]
trig_xe18_0:              HLT_xe110_pufit_xe70_L1XE50    [Global]
trig_xe18_1:              HLT_xe120_pufit_L1XE50         [Global]
trig_xe18_2:              HLT_xe110_pufit_xe65_L1XE50    [Global]
trig_egamma15_0:          HLT_e24_lhmedium_L1EM20VH      [Global]
trig_egamma15_1:          HLT_e60_lhmedium               [Global]
trig_egamma15_2:          HLT_e120_lhloose               [Global]
trig_egamma16_0_0:        HLT_e24_lhmedium_nod0_L1EM20VH [Global]
trig_egamma16_0_1:        HLT_e26_lhtight_nod0_ivarloose [Global]
trig_egamma16_0_2:        HLT_e60_medium                 [Global]
trig_egamma16_0_3:        HLT_e60_lhmedium_nod0          [Global]
trig_egamma16_0_4:        HLT_e140_lhloose_nod0          [Global]
trig_egamma16_0_5:        HLT_e300_etcut                 [Global]
trig_egamma16_1_0:        HLT_e26_lhtight_nod0_ivarloose [Global]
trig_egamma16_1_1:        HLT_e60_medium                 [Global]
trig_egamma16_1_2:        HLT_e60_lhmedium_nod0          [Global]
trig_egamma16_1_3:        HLT_e140_lhloose_nod0          [Global]
trig_egamma16_1_4:        HLT_e300_etcut                 [Global]
trig_egamma17_0:          HLT_e26_lhtight_nod0_ivarloose [Global]
trig_egamma17_1:          HLT_e60_lhmedium_nod0          [Global]
trig_egamma17_2:          HLT_e140_lhloose_nod0          [Global]
trig_egamma17_3:          HLT_e300_etcut                 [Global]
trig_egamma18_0_0:        HLT_e26_lhtight_nod0_ivarloose [Global]
trig_egamma18_0_1:        HLT_e60_lhmedium_nod0          [Global]
trig_egamma18_0_2:        HLT_e140_lhloose_nod0          [Global]
trig_egamma18_0_3:        HLT_e300_etcut                 [Global]
trig_egamma18_1_0:        HLT_e26_lhtight_nod0           [Global]
trig_egamma18_1_1:        HLT_e26_lhtight_nod0_ivarloose [Global]
trig_egamma18_1_2:        HLT_e60_lhmedium_nod0          [Global]
trig_egamma18_1_3:        HLT_e140_lhloose_nod0          [Global]
trig_egamma18_1_4:        HLT_e300_etcut                 [Global]
electrons_calo_etaBE:     2.47                           [Global]
electrons_likelihood:     DFCommonElectronsLHLoose       [Global]
electrons_maxeta:         2.47                           [Global]
taus_maxeta:              2.47                           [Global]
muons_maxeta:             2.5                            [Global]
electrons_minpt:          7.                             [Global]
muons_minpt:              7.                             [Global]
taus_minpt:               20.                            [Global]
jets_cleaning:            DFCommonJets_jetClean_LooseBad [Global]
jets_cleaning_leadjet:    DFCommonJets_jetClean_TightBad [Global]
jets_minpt:               30.                            [Global]
s2t_ptl1:                 20.                            [Global]
s2t_mll_min:              50.                            [Global]
s2t_ptmiss:               20.                            [Global]
s2t_highmass_mll_min:     100.                           [Global]
s2t_mono_ptj1:            120.                           [Global]
s2t_mono_absetaj1:        2.4                            [Global]
s2t_2jet_ptj1:            110.                           [Global]
s2t_2jet_ptj2:            50.                            [Global]
s2t_vbf_ptj1:             80.                            [Global]
s2t_vbf_ptj2:             50.                            [Global]
s2t_vbf_mjj:              200.                           [Global]
s2t_metjetbalance_ptj:    30.                            [Global]
s2t_metjetbalance_dphimetj: 0.4                            [Global]
s2t_vbf_cjv:              30.                            [Global]
s2t_vbf_dyjj_min:         1.                             [Global]
Reading settings file /tmp/10113/EVNT_9/settings.dat
mcType:                   MC16e                          [Global]
s2thh:                    0                              [Global]
s2tlh:                    1                              [Global]
Zp2thh:                   0                              [Global]
Zp2tlh:                   0                              [Global]
applyCorrEW:              0                              [Global]
applyCorrMJJ:             0                              [Global]
applyCorrLEP:             0                              [Global]
applyCorrHER:             0                              [Global]
applyTruthRW:             0                              [Global]
applyInAndOutRW:          0                              [Global]
applyHiddenObsRW:         0                              [Global]
doSys:                    0                              [Global]
onlyDoLepSys:             0                              [Global]
onlyDoJetSys:             0                              [Global]
doCutflow:                1                              [Global]
doNtuple:                 0                              [Global]
doBootstrap:              0                              [Global]
beBlind:                  0                              [Global]
onlyBookCore:             0                              [Global]
--- TGRLCollection      : Now merging GRLs where possible. Metadata required to be identical.[0m
CP::TPileupReweighting... INFO    Using MC16 Period configuration
CP::TPileupReweighting... INFO    Using MC16 Period configuration
CP::TPileupReweighting... INFO    Using MC16 Period configuration
CP::TPileupReweighting... INFO    Adding LumiMetaData (scale factor=0.970874)...
CP::TPileupReweighting... INFO    Adding LumiMetaData (scale factor=1.010100)...
CP::TPileupReweighting... INFO    Adding LumiMetaData (scale factor=0.934579)...
DefaultWeightTool        INFO    AsgTool DefaultWeightTool @ 0xc03f6d0
ToolSvc.xAODConfigTool   INFO    Initialising...
ToolSvc.TrigDecisionTool INFO    Initializing Trig::TrigDecisionTool (standalone version even for athena)
ToolSvc.TrigDecisionTool INFO    Initialized TDT
ToolSvc.MuonEfficiency...INFO    Efficiency type is = RECO
ToolSvc.MuonEfficiency...INFO    JPsi based low pt SF will start to rock below 15 GeV!
ToolSvc.MuonEfficiency...INFO    Trying to initialize, with working point Medium, using calibration release 210222_Precision_r21
ReadStreamerInfo, class:string, illegal uid=-2
ReadStreamerInfo, class:string, illegal uid=-2
ReadStreamerInfo, class:string, illegal uid=-2
ReadStreamerInfo, class:string, illegal uid=-2
ToolSvc.MuonEfficiency...INFO    Successfully initialized! 
ToolSvc.MuonEfficiency...INFO    Efficiency type is = RECO
ToolSvc.MuonEfficiency...INFO    JPsi based low pt SF will start to rock below 15 GeV!
ToolSvc.MuonEfficiency...INFO    Trying to initialize, with working point Medium, using calibration release 210222_Precision_r21
ToolSvc.MuonEfficiency...INFO    Successfully initialized! 
ToolSvc.MuonEfficiency...INFO    Efficiency type is = RECO
ToolSvc.MuonEfficiency...INFO    JPsi based low pt SF will start to rock below 15 GeV!
ToolSvc.MuonEfficiency...INFO    Trying to initialize, with working point Medium, using calibration release 210222_Precision_r21
ToolSvc.MuonEfficiency...INFO    Successfully initialized! 
ToolSvc.MuonEfficiency...INFO    Efficiency type is = ISO
ToolSvc.MuonEfficiency...INFO    Trying to initialize, with working point FCLooseIso, using calibration release 210222_Precision_r21
ToolSvc.MuonEfficiency...INFO    Successfully initialized! 
ToolSvc.MuonEfficiency...INFO    Efficiency type is = ISO
ToolSvc.MuonEfficiency...INFO    Trying to initialize, with working point FCLooseIso, using calibration release 210222_Precision_r21
ToolSvc.MuonEfficiency...INFO    Successfully initialized! 
ToolSvc.MuonEfficiency...INFO    Efficiency type is = TTVA
ToolSvc.MuonEfficiency...INFO    Trying to initialize, with working point TTVA, using calibration release 210222_Precision_r21
ReadStreamerInfo, class:string, illegal uid=-2
ToolSvc.MuonEfficiency...INFO    Successfully initialized! 
ToolSvc.MuonEfficiency...INFO    Efficiency type is = TTVA
ToolSvc.MuonEfficiency...INFO    Trying to initialize, with working point TTVA, using calibration release 210222_Precision_r21
ToolSvc.MuonEfficiency...INFO    Successfully initialized! 
Setting up muon calibration for year: 16_
ToolSvc.MuonCalibratio...INFO    Initialising...
ToolSvc.MCaST_Own_MST    INFO    Initialising...
ToolSvc.MCaST_Own_MST    INFO    Maximum eta: 2.7
ToolSvc.MCaST_Own_MST    INFO    Muon quality: 1
ToolSvc.MCaST_Own_MST    INFO    Initialising tight working point histograms...
ToolSvc.MCaST_Own_MST    INFO    Reading muon tight working point histograms from /cvmfs/atlas.cern.ch/repo/sw/database/GroupData/MuonSelectorTools/PreRec2016_2016-04-13/muonSelection_tightWPHisto.root
ToolSvc.MCaST_Own_MST    INFO    Successfully read tight working point histogram: tightWP_lowPt_rhoCuts
ToolSvc.MCaST_Own_MST    INFO    Successfully read tight working point histogram: tightWP_lowPt_qOverPCuts
ToolSvc.MCaST_Own_MST    INFO    Successfully read tight working point histogram: tightWP_mediumPt_rhoCuts
ToolSvc.MCaST_Own_MST    INFO    Successfully read tight working point histogram: tightWP_highPt_rhoCuts
ToolSvc.MCaST_Own_MST    INFO    Reading bad muon veto cut functions from /cvmfs/atlas.cern.ch/repo/sw/database/GroupData/MuonSelectorTools/180620_BMVmimicCutFunctions/BMVmimicCutFunctions.root
create data set info Default
                         : Booking "BDTG" of type "BDT" from /cvmfs/atlas.cern.ch/repo/sw/database/GroupData/MuonSelectorTools/190118_PrelimLowPtMVA/LowPtMVA_Weights/BDTG_9JAN2019_MuidCB_EVEN.weights.xml.
                         : Reading weight file: /cvmfs/atlas.cern.ch/repo/sw/database/GroupData/MuonSelectorTools/190118_PrelimLowPtMVA/LowPtMVA_Weights/BDTG_9JAN2019_MuidCB_EVEN.weights.xml
<HEADER> DataSetInfo              : [Default] : Added class "Signal"
<HEADER> DataSetInfo              : [Default] : Added class "Background"
                         : Booked classifier "BDTG" of type: "BDT"
create data set info Default
                         : Booking "BDTG" of type "BDT" from /cvmfs/atlas.cern.ch/repo/sw/database/GroupData/MuonSelectorTools/190118_PrelimLowPtMVA/LowPtMVA_Weights/BDTG_9JAN2019_MuidCB_ODD.weights.xml.
                         : Reading weight file: /cvmfs/atlas.cern.ch/repo/sw/database/GroupData/MuonSelectorTools/190118_PrelimLowPtMVA/LowPtMVA_Weights/BDTG_9JAN2019_MuidCB_ODD.weights.xml
<HEADER> DataSetInfo              : [Default] : Added class "Signal"
<HEADER> DataSetInfo              : [Default] : Added class "Background"
                         : Booked classifier "BDTG" of type: "BDT"
create data set info Default
                         : Booking "BDTG" of type "BDT" from /cvmfs/atlas.cern.ch/repo/sw/database/GroupData/MuonSelectorTools/190118_PrelimLowPtMVA/LowPtMVA_Weights/BDTG_9JAN2019_MuGirl_EVEN.weights.xml.
                         : Reading weight file: /cvmfs/atlas.cern.ch/repo/sw/database/GroupData/MuonSelectorTools/190118_PrelimLowPtMVA/LowPtMVA_Weights/BDTG_9JAN2019_MuGirl_EVEN.weights.xml
<HEADER> DataSetInfo              : [Default] : Added class "Signal"
<HEADER> DataSetInfo              : [Default] : Added class "Background"
                         : Booked classifier "BDTG" of type: "BDT"
create data set info Default
                         : Booking "BDTG" of type "BDT" from /cvmfs/atlas.cern.ch/repo/sw/database/GroupData/MuonSelectorTools/190118_PrelimLowPtMVA/LowPtMVA_Weights/BDTG_9JAN2019_MuGirl_ODD.weights.xml.
                         : Reading weight file: /cvmfs/atlas.cern.ch/repo/sw/database/GroupData/MuonSelectorTools/190118_PrelimLowPtMVA/LowPtMVA_Weights/BDTG_9JAN2019_MuGirl_ODD.weights.xml
<HEADER> DataSetInfo              : [Default] : Added class "Signal"
<HEADER> DataSetInfo              : [Default] : Added class "Background"
                         : Booked classifier "BDTG" of type: "BDT"
ToolSvc.MuonCalibratio...INFO    Opening correction file : /cvmfs/atlas.cern.ch/repo/sw/database/GroupData/MuonMomentumCorrections/sagittaBiasDataAll_03_02_19_Data16/outqDeltamPlots_iter0/CB_data.root
ToolSvc.MuonCalibratio...INFO    Opening correction file : /cvmfs/atlas.cern.ch/repo/sw/database/GroupData/MuonMomentumCorrections/sagittaBiasDataAll_03_02_19_Data16/outqDeltamPlots_iter1/CB_data.root
ToolSvc.MuonCalibratio...INFO    Opening correction file : /cvmfs/atlas.cern.ch/repo/sw/database/GroupData/MuonMomentumCorrections/sagittaBiasDataAll_03_02_19_Data16/outqDeltamPlots_iter2/CB_data.root
ToolSvc.MuonCalibratio...INFO    Opening correction file : /cvmfs/atlas.cern.ch/repo/sw/database/GroupData/MuonMomentumCorrections/sagittaBiasDataAll_03_02_19_Data16/outqDeltamPlots_iter3/CB_data.root
ToolSvc.MuonCalibratio...INFO    Opening correction file : /cvmfs/atlas.cern.ch/repo/sw/database/GroupData/MuonMomentumCorrections/sagittaBiasDataAll_03_02_19_Data16/outqDeltamPlots_iter0/ID_data.root
ToolSvc.MuonCalibratio...INFO    Opening correction file : /cvmfs/atlas.cern.ch/repo/sw/database/GroupData/MuonMomentumCorrections/sagittaBiasDataAll_03_02_19_Data16/outqDeltamPlots_iter1/ID_data.root
ToolSvc.MuonCalibratio...INFO    Opening correction file : /cvmfs/atlas.cern.ch/repo/sw/database/GroupData/MuonMomentumCorrections/sagittaBiasDataAll_03_02_19_Data16/outqDeltamPlots_iter2/ID_data.root
ToolSvc.MuonCalibratio...INFO    Opening correction file : /cvmfs/atlas.cern.ch/repo/sw/database/GroupData/MuonMomentumCorrections/sagittaBiasDataAll_03_02_19_Data16/outqDeltamPlots_iter3/ID_data.root
ToolSvc.MuonCalibratio...INFO    Opening correction file : /cvmfs/atlas.cern.ch/repo/sw/database/GroupData/MuonMomentumCorrections/sagittaBiasDataAll_03_02_19_Data16/outqDeltamPlots_iter0/ME_data.root
ToolSvc.MuonCalibratio...INFO    Opening correction file : /cvmfs/atlas.cern.ch/repo/sw/database/GroupData/MuonMomentumCorrections/sagittaBiasDataAll_03_02_19_Data16/outqDeltamPlots_iter1/ME_data.root
ToolSvc.MuonCalibratio...INFO    Opening correction file : /cvmfs/atlas.cern.ch/repo/sw/database/GroupData/MuonMomentumCorrections/sagittaBiasDataAll_03_02_19_Data16/outqDeltamPlots_iter2/ME_data.root
ToolSvc.MuonCalibratio...INFO    Opening correction file : /cvmfs/atlas.cern.ch/repo/sw/database/GroupData/MuonMomentumCorrections/sagittaBiasDataAll_03_02_19_Data16/outqDeltamPlots_iter3/ME_data.root
ToolSvc.MuonCalibratio...INFO    Not correcting data, only using systematic uncertainty
ToolSvc.MuonCalibratio...INFO    Using only statistical combination of sagitta bias ID and sagitta bias MS with rho 0
ToolSvc.MuonSelectionT...INFO    Initialising...
ToolSvc.MuonSelectionT...INFO    Maximum eta: 2.5
ToolSvc.MuonSelectionT...INFO    Muon quality: 2
ToolSvc.MuonSelectionT...INFO    Initialising tight working point histograms...
ToolSvc.MuonSelectionT...INFO    Reading muon tight working point histograms from /cvmfs/atlas.cern.ch/repo/sw/database/GroupData/MuonSelectorTools/PreRec2016_2016-04-13/muonSelection_tightWPHisto.root
ToolSvc.MuonSelectionT...INFO    Successfully read tight working point histogram: tightWP_lowPt_rhoCuts
ToolSvc.MuonSelectionT...INFO    Successfully read tight working point histogram: tightWP_lowPt_qOverPCuts
ToolSvc.MuonSelectionT...INFO    Successfully read tight working point histogram: tightWP_mediumPt_rhoCuts
ToolSvc.MuonSelectionT...INFO    Successfully read tight working point histogram: tightWP_highPt_rhoCuts
ToolSvc.MuonSelectionT...INFO    Reading bad muon veto cut functions from /cvmfs/atlas.cern.ch/repo/sw/database/GroupData/MuonSelectorTools/180620_BMVmimicCutFunctions/BMVmimicCutFunctions.root
create data set info Default
                         : Booking "BDTG" of type "BDT" from /cvmfs/atlas.cern.ch/repo/sw/database/GroupData/MuonSelectorTools/190118_PrelimLowPtMVA/LowPtMVA_Weights/BDTG_9JAN2019_MuidCB_EVEN.weights.xml.
                         : Reading weight file: /cvmfs/atlas.cern.ch/repo/sw/database/GroupData/MuonSelectorTools/190118_PrelimLowPtMVA/LowPtMVA_Weights/BDTG_9JAN2019_MuidCB_EVEN.weights.xml
<HEADER> DataSetInfo              : [Default] : Added class "Signal"
<HEADER> DataSetInfo              : [Default] : Added class "Background"
                         : Booked classifier "BDTG" of type: "BDT"
create data set info Default
                         : Booking "BDTG" of type "BDT" from /cvmfs/atlas.cern.ch/repo/sw/database/GroupData/MuonSelectorTools/190118_PrelimLowPtMVA/LowPtMVA_Weights/BDTG_9JAN2019_MuidCB_ODD.weights.xml.
                         : Reading weight file: /cvmfs/atlas.cern.ch/repo/sw/database/GroupData/MuonSelectorTools/190118_PrelimLowPtMVA/LowPtMVA_Weights/BDTG_9JAN2019_MuidCB_ODD.weights.xml
<HEADER> DataSetInfo              : [Default] : Added class "Signal"
<HEADER> DataSetInfo              : [Default] : Added class "Background"
                         : Booked classifier "BDTG" of type: "BDT"
create data set info Default
                         : Booking "BDTG" of type "BDT" from /cvmfs/atlas.cern.ch/repo/sw/database/GroupData/MuonSelectorTools/190118_PrelimLowPtMVA/LowPtMVA_Weights/BDTG_9JAN2019_MuGirl_EVEN.weights.xml.
                         : Reading weight file: /cvmfs/atlas.cern.ch/repo/sw/database/GroupData/MuonSelectorTools/190118_PrelimLowPtMVA/LowPtMVA_Weights/BDTG_9JAN2019_MuGirl_EVEN.weights.xml
<HEADER> DataSetInfo              : [Default] : Added class "Signal"
<HEADER> DataSetInfo              : [Default] : Added class "Background"
                         : Booked classifier "BDTG" of type: "BDT"
create data set info Default
                         : Booking "BDTG" of type "BDT" from /cvmfs/atlas.cern.ch/repo/sw/database/GroupData/MuonSelectorTools/190118_PrelimLowPtMVA/LowPtMVA_Weights/BDTG_9JAN2019_MuGirl_ODD.weights.xml.
                         : Reading weight file: /cvmfs/atlas.cern.ch/repo/sw/database/GroupData/MuonSelectorTools/190118_PrelimLowPtMVA/LowPtMVA_Weights/BDTG_9JAN2019_MuGirl_ODD.weights.xml
<HEADER> DataSetInfo              : [Default] : Added class "Signal"
<HEADER> DataSetInfo              : [Default] : Added class "Background"
                         : Booked classifier "BDTG" of type: "BDT"
ToolSvc.MuonSelectionT...INFO    Initialising...
ToolSvc.MuonSelectionT...INFO    Maximum eta: 2.5
ToolSvc.MuonSelectionT...INFO    Muon quality: 1
ToolSvc.MuonSelectionT...INFO    Initialising tight working point histograms...
ToolSvc.MuonSelectionT...INFO    Reading muon tight working point histograms from /cvmfs/atlas.cern.ch/repo/sw/database/GroupData/MuonSelectorTools/PreRec2016_2016-04-13/muonSelection_tightWPHisto.root
ToolSvc.MuonSelectionT...INFO    Successfully read tight working point histogram: tightWP_lowPt_rhoCuts
ToolSvc.MuonSelectionT...INFO    Successfully read tight working point histogram: tightWP_lowPt_qOverPCuts
ToolSvc.MuonSelectionT...INFO    Successfully read tight working point histogram: tightWP_mediumPt_rhoCuts
ToolSvc.MuonSelectionT...INFO    Successfully read tight working point histogram: tightWP_highPt_rhoCuts
ToolSvc.MuonSelectionT...INFO    Reading bad muon veto cut functions from /cvmfs/atlas.cern.ch/repo/sw/database/GroupData/MuonSelectorTools/180620_BMVmimicCutFunctions/BMVmimicCutFunctions.root
create data set info Default
                         : Booking "BDTG" of type "BDT" from /cvmfs/atlas.cern.ch/repo/sw/database/GroupData/MuonSelectorTools/190118_PrelimLowPtMVA/LowPtMVA_Weights/BDTG_9JAN2019_MuidCB_EVEN.weights.xml.
                         : Reading weight file: /cvmfs/atlas.cern.ch/repo/sw/database/GroupData/MuonSelectorTools/190118_PrelimLowPtMVA/LowPtMVA_Weights/BDTG_9JAN2019_MuidCB_EVEN.weights.xml
<HEADER> DataSetInfo              : [Default] : Added class "Signal"
<HEADER> DataSetInfo              : [Default] : Added class "Background"
                         : Booked classifier "BDTG" of type: "BDT"
create data set info Default
                         : Booking "BDTG" of type "BDT" from /cvmfs/atlas.cern.ch/repo/sw/database/GroupData/MuonSelectorTools/190118_PrelimLowPtMVA/LowPtMVA_Weights/BDTG_9JAN2019_MuidCB_ODD.weights.xml.
                         : Reading weight file: /cvmfs/atlas.cern.ch/repo/sw/database/GroupData/MuonSelectorTools/190118_PrelimLowPtMVA/LowPtMVA_Weights/BDTG_9JAN2019_MuidCB_ODD.weights.xml
<HEADER> DataSetInfo              : [Default] : Added class "Signal"
<HEADER> DataSetInfo              : [Default] : Added class "Background"
                         : Booked classifier "BDTG" of type: "BDT"
create data set info Default
                         : Booking "BDTG" of type "BDT" from /cvmfs/atlas.cern.ch/repo/sw/database/GroupData/MuonSelectorTools/190118_PrelimLowPtMVA/LowPtMVA_Weights/BDTG_9JAN2019_MuGirl_EVEN.weights.xml.
                         : Reading weight file: /cvmfs/atlas.cern.ch/repo/sw/database/GroupData/MuonSelectorTools/190118_PrelimLowPtMVA/LowPtMVA_Weights/BDTG_9JAN2019_MuGirl_EVEN.weights.xml
<HEADER> DataSetInfo              : [Default] : Added class "Signal"
<HEADER> DataSetInfo              : [Default] : Added class "Background"
                         : Booked classifier "BDTG" of type: "BDT"
create data set info Default
                         : Booking "BDTG" of type "BDT" from /cvmfs/atlas.cern.ch/repo/sw/database/GroupData/MuonSelectorTools/190118_PrelimLowPtMVA/LowPtMVA_Weights/BDTG_9JAN2019_MuGirl_ODD.weights.xml.
                         : Reading weight file: /cvmfs/atlas.cern.ch/repo/sw/database/GroupData/MuonSelectorTools/190118_PrelimLowPtMVA/LowPtMVA_Weights/BDTG_9JAN2019_MuGirl_ODD.weights.xml
<HEADER> DataSetInfo              : [Default] : Added class "Signal"
<HEADER> DataSetInfo              : [Default] : Added class "Background"
                         : Booked classifier "BDTG" of type: "BDT"
ToolSvc.EgammaCalibrat...INFO    Initialization
eg_resolution            INFO    Initialize eg_resolution
GainUncertainty          INFO    opening file /cvmfs/atlas.cern.ch/repo/sw/database/GroupData/ElectronPhotonFourMomentumCorrection/v14/gain_uncertainty_specialRun.root
egammaMVACalib           INFO    Accessing calibration from egammaMVACalib/offline/v7
egammaMVACalib           INFO    Reading weights from egammaMVACalib/offline/v7
egammaMVACalib           INFO    117 readers created
egammaMVACalib           INFO    egammaMVACalib::printReadersInfo 100 eta bin(s) -- ( 0 < abs(el_cl_eta) < 2.5
egammaMVACalib           INFO    egammaMVACalib::printReadersInfo 100 energy bin(s) -- ( 0  < (el_rawcl_Es1 + el_rawcl_Es2 + el_rawcl_Es3)/cosh(el_cl_eta) < 50000GeV
egammaMVACalib           INFO    Number of variables:10
EgammaMVATool            INFO    Using layer correction
EgammaMVATool            INFO    10 variables for electrons
MVATreeElectron          INFO    creating tree for 10 variables: el_cl_E,el_cl_E_TileGap3,el_cl_eta,el_cl_etaCalo,el_cl_phi,el_cl_phiCalo,el_rawcl_Es0,el_rawcl_Es1,el_rawcl_Es2,el_rawcl_Es3
egammaMVACalib           INFO    Variable that defines particleType not set. Using default formula: ph_Rconv > 0. && ph_Rconv < 800.
egammaMVACalib           INFO    Accessing calibration from egammaMVACalib/offline/v7
egammaMVACalib           INFO    Reading weights from egammaMVACalib/offline/v7
egammaMVACalib           INFO    234 readers created
egammaMVACalib           INFO    egammaMVACalib::printReadersInfo 100 eta bin(s) -- ( 0 < abs(ph_cl_eta) < 2.5
egammaMVACalib           INFO    egammaMVACalib::printReadersInfo 100 energy bin(s) -- ( 0  < (ph_rawcl_Es1 + ph_rawcl_Es2 + ph_rawcl_Es3)/cosh(ph_cl_eta) < 50000GeV
egammaMVACalib           INFO    Number of variables:14
EgammaMVATool            INFO    configuration does not contain list of variables, try to guess:
EgammaMVATool            INFO    18 variables for photons
EgammaMVATool            INFO      ph_Rconv
EgammaMVATool            INFO      ph_cl_E
EgammaMVATool            INFO      ph_cl_E_TileGap3
EgammaMVATool            INFO      ph_cl_eta
EgammaMVATool            INFO      ph_cl_etaCalo
EgammaMVATool            INFO      ph_cl_phi
EgammaMVATool            INFO      ph_cl_phiCalo
EgammaMVATool            INFO      ph_convtrk1nPixHits
EgammaMVATool            INFO      ph_convtrk1nSCTHits
EgammaMVATool            INFO      ph_convtrk2nPixHits
EgammaMVATool            INFO      ph_convtrk2nSCTHits
EgammaMVATool            INFO      ph_pt1conv
EgammaMVATool            INFO      ph_pt2conv
EgammaMVATool            INFO      ph_ptconv
EgammaMVATool            INFO      ph_rawcl_Es0
EgammaMVATool            INFO      ph_rawcl_Es1
EgammaMVATool            INFO      ph_rawcl_Es2
EgammaMVATool            INFO      ph_rawcl_Es3
MVATreePhoton            INFO    creating tree for 18 variables: ph_Rconv,ph_cl_E,ph_cl_E_TileGap3,ph_cl_eta,ph_cl_etaCalo,ph_cl_phi,ph_cl_phiCalo,ph_convtrk1nPixHits,ph_convtrk1nSCTHits,ph_convtrk2nPixHits,ph_convtrk2nSCTHits,ph_pt1conv,ph_pt2conv,ph_ptconv,ph_rawcl_Es0,ph_rawcl_Es1,ph_rawcl_Es2,ph_rawcl_Es3
egammaLayerRecalibTool   INFO    using scale es2017_21.0_v0
egammaLayerRecalibTool   INFO    using scale run2_alt_with_layer2_r21_v0
egammaLayerRecalibTool   INFO    using scale layer2_alt_run2_r21_v0
egammaLayerRecalibTool   INFO    using scale ps_2016_r21_v0
ToolSvc.EgammaCalibrat...INFO    ESModel: es2018_R21_v0
ToolSvc.EgammaCalibrat...INFO    ResolutionType: SigmaEff90
ToolSvc.EgammaCalibrat...INFO    layer correction = 2
ToolSvc.EgammaCalibrat...INFO    PS correction = 2
ToolSvc.EgammaCalibrat...INFO    S12 correction = 2
ToolSvc.EgammaCalibrat...INFO    layer2 recalibration = 2
ToolSvc.EgammaCalibrat...INFO    intermodule correction = 1
ToolSvc.EgammaCalibrat...INFO    phi uniformity correction = 1
ToolSvc.EgammaCalibrat...INFO    gain correction = 0
ToolSvc.EgammaCalibrat...INFO    smearing = 2
ToolSvc.EgammaCalibrat...INFO    insitu scales = 2
ToolSvc.EgammaCalibrat...INFO    ep combination = 0
ToolSvc.EgammaCalibrat...INFO    use MVA calibration = 2
ToolSvc.EgammaCalibrat...INFO    use temperature correction 2015 = 2
ToolSvc.EgammaCalibrat...INFO    use uA2MeV correction 2015 1/2 week = 2
ToolSvc.IsolationSelec...INFO    Initialising...
ToolSvc.IsolationSelec...INFO    Reading input file IsolationSelection/v2/MC15_Z_Jpsi_cutMap.root from /cvmfs/atlas.cern.ch/repo/sw/database/GroupData/IsolationSelection/v2/MC15_Z_Jpsi_cutMap.root
ToolSvc.IsolationSelec...INFO    VersionInfo:2015_Sep_29_v2a
ToolSvc.IsolationClose...INFO    The following isolation cones are considered for Electron
ToolSvc.IsolationClose...INFO    No TrackSelectionTool provided, so I will create and configure my own, called: TrackParticleSelectionTool
ToolSvc.TrackParticleS...INFO    Initializing track selection tool.
ToolSvc.TrackParticleS...INFO    Cut level set to "Loose".
ToolSvc.TrackParticleS...INFO    This will not overwrite other cuts that have been set.
ToolSvc.TrackParticleS...INFO      Minimum Pt: 500 MeV
ToolSvc.TrackParticleS...INFO      Maximum |Eta|: 2.5
ToolSvc.TrackParticleS...INFO      Maximum z0*sin(theta): 3 mm
ToolSvc.TrackParticleS...INFO      Maximum pixel holes: 1
ToolSvc.TrackParticleS...INFO      Minimum silicon (pixel + SCT) hits: 7
ToolSvc.TrackParticleS...INFO      Maximum silicon holes: 2
ToolSvc.TrackParticleS...INFO      No more than 1 shared Si module(s)
ToolSvc.TrackParticleS...INFO        (where a "shared module" is 1 shared pixel hit or 2 shared SCT hits)
ToolSvc.ttva_selection...INFO     Initializing TrackVertexAssociationTool
ToolSvc.ttva_selection...INFO    TVA working point 'Loose' provided - tool properties have been configured accordingly
ToolSvc.ttva_selection...INFO    Cut on d0: -1	(d0_cut)
ToolSvc.ttva_selection...INFO    Cut on Δz * sin θ: 3	(dzSinTheta_cut)
ToolSvc.ttva_selection...INFO    Allow UsedInFit MatchStatus: 1	(doUsedInFit)
ToolSvc.ttva_selection...INFO    Require VxType::PriVtx for unique match: 1	(requirePriVtx)
ToolSvc.IsolationClose...INFO    The following isolation cones are considered for Electron
ToolSvc.IsolationClose...INFO         --- topoetcone20
ToolSvc.IsolationClose...INFO    The following isolation cones are considered for Muon
ToolSvc.IsolationClose...INFO         --- ptvarcone30_TightTTVA_pt1000
ToolSvc.IsolationClose...INFO         --- topoetcone20
ToolSvc.IsolationClose...INFO    The following isolation cones are considered for Photon
ToolSvc.IsolationSelec...INFO    Initialising...
ToolSvc.IsolationSelec...INFO    Reading input file IsolationSelection/v2/MC15_Z_Jpsi_cutMap.root from /cvmfs/atlas.cern.ch/repo/sw/database/GroupData/IsolationSelection/v2/MC15_Z_Jpsi_cutMap.root
ToolSvc.IsolationSelec...INFO    VersionInfo:2015_Sep_29_v2a
ToolSvc.IsolationCorre...INFO    in initialize of ToolSvc.IsolationCorrectionTool...
ToolSvc.IsolationCorre...INFO     Path found = /cvmfs/atlas.cern.ch/repo/sw/database/GroupData/IsolationCorrections/v5/isolation_ptcorrections_rel20_2.root
ToolSvc.IsolationCorre...INFO     Path found = /cvmfs/atlas.cern.ch/repo/sw/database/GroupData/IsolationCorrections/v3/isolation_ddcorrection_shift.root
ToolSvc.IsolationCorre...INFO     Path found = /cvmfs/atlas.cern.ch/repo/sw/database/GroupData/IsolationCorrections/v1/isolation_ddcorrection_smearing.root
ToolSvc.AsgPhotonEffic...INFO     Using path = /cvmfs/atlas.cern.ch/repo/sw/database/GroupData/PhotonEfficiencyCorrection/2015_2017/rel21.2/Summer2018_Rec_v1/efficiencySF.offline.Tight.13TeV.rel21.25ns.con.v01.root
ToolSvc.AsgPhotonEffic...INFO     Using path = /cvmfs/atlas.cern.ch/repo/sw/database/GroupData/PhotonEfficiencyCorrection/2015_2017/rel21.2/Summer2018_Rec_v1/efficiencySF.offline.Tight.13TeV.rel21.25ns.unc.v01.root
ToolSvc.AsgPhotonEffic...INFO     Using path = /cvmfs/atlas.cern.ch/repo/sw/database/GroupData/PhotonEfficiencyCorrection/2015_2017/rel21.2/Summer2018_Rec_v1/efficiencySF.Isolation.isolFixedCutLoose.13TeV.rel21.25ns.con.TrkCaloRadZTrkCaloSgPh.v03.root
ToolSvc.AsgPhotonEffic...INFO     Using path = /cvmfs/atlas.cern.ch/repo/sw/database/GroupData/PhotonEfficiencyCorrection/2015_2017/rel21.2/Summer2018_Rec_v1/efficiencySF.Isolation.isolFixedCutLoose.13TeV.rel21.25ns.unc.TrkCaloRadZTrkCaloSgPh.v03.root
ToolSvc.AsgPhotonEffic...INFO     Using path = /cvmfs/atlas.cern.ch/repo/sw/database/GroupData/PhotonEfficiencyCorrection/2015_2017/rel21.2/Summer2018_Rec_v1/efficiencySF.Isolation.isolFixedCutTight.13TeV.rel21.25ns.con.TrkCaloRadZTrkCaloSgPh.v03.root
ToolSvc.AsgPhotonEffic...INFO     Using path = /cvmfs/atlas.cern.ch/repo/sw/database/GroupData/PhotonEfficiencyCorrection/2015_2017/rel21.2/Summer2018_Rec_v1/efficiencySF.Isolation.isolFixedCutTight.13TeV.rel21.25ns.unc.TrkCaloRadZTrkCaloSgPh.v03.root
ToolSvc.TauSelectionTo...INFO    Initializing TauSelectionTool
ToolSvc.TauSelectionTo...INFO    Initializing TauSelectionTool
ToolSvc.TauSelectionTo...INFO    Initializing TauSelectionTool
ToolSvc.TauEleORDecoratorINFO    Initializing TauOverlappingElectronLLHDecorator
ToolSvc.TauEleORDecoratorINFO    Loading ele OLR cut file TauAnalysisTools/00-03-16/Selection/eveto_cutvals.root
ToolSvc.TauSmearingTool  INFO    Initializing TauSmearingTool
ToolSvc.TauSmearingToo...INFO    Initializing CommonSmearingTool
ToolSvc.TauSmearingToo...INFO    data loaded from /cvmfs/atlas.cern.ch/repo/sw/database/GroupData/TauAnalysisTools/00-03-16/Smearing/TES_TrueHadTau_2019-summer.root
ToolSvc.TauTruthMatchi...INFO    Initializing TauTruthMatchingTool
ToolSvc.TauTruthMatchi...INFO    Initializing BuildTruthTaus
ToolSvc.TauTruthMatchi...INFO     Initializing MCTruthClassifier
ToolSvc.TauEffTool_mediumINFO    Initializing TauEfficiencyCorrectionsTool
ToolSvc.TauEffTool_med...INFO    Initializing CommonEfficiencyTool
ToolSvc.TauEffTool_med...INFO    data loaded from /cvmfs/atlas.cern.ch/repo/sw/database/GroupData/TauAnalysisTools/00-03-16/EfficiencyCorrections/Reco_TrueHadTau_2019-summer.root
ToolSvc.TauEffTool_med...INFO    Initializing CommonEfficiencyTool
ToolSvc.TauEffTool_med...INFO    data loaded from /cvmfs/atlas.cern.ch/repo/sw/database/GroupData/TauAnalysisTools/00-03-16/EfficiencyCorrections/RNNID_TrueHadTau_2019-summer.root
ToolSvc.TauEffTool_med...INFO    Initializing CommonEfficiencyTool
ToolSvc.TauEffTool_med...INFO    data loaded from /cvmfs/atlas.cern.ch/repo/sw/database/GroupData/TauAnalysisTools/00-03-16/EfficiencyCorrections/EleOLR_TrueHadTau_2016-ichep.root
ToolSvc.TauEffTool_med...INFO    Initializing CommonEfficiencyTool
ToolSvc.TauEffTool_med...INFO    data loaded from /cvmfs/atlas.cern.ch/repo/sw/database/GroupData/TauAnalysisTools/00-03-16/EfficiencyCorrections/EleOLR_TrueElectron_2019-summer.root
ToolSvc.BTaggingEffici...INFO     Hello BTaggingEfficiencyTool user... initializing
ToolSvc.BTaggingEffici...INFO     TaggerName = DL1r
ToolSvc.BTaggingEffici...INFO     OP = FixedCutBEff_77
ToolSvc.BTaggingEffici...INFO     b-jet     SF/eff calibration = default / 410470
ToolSvc.BTaggingEffici...INFO     c-jet     SF/eff calibration = default / 410470
ToolSvc.BTaggingEffici...INFO     tau-jet   SF/eff calibration = default / 410470
ToolSvc.BTaggingEffici...INFO     light-jet SF/eff calibration = default / 410470
ToolSvc.BTaggingEffici...INFO     JetAuthor = AntiKt4EMPFlowJets_BTagging201903
=== CalibrationDataInterfaceROOT::CalibrationDataInterfaceROOT ===
 taggerName           : DL1r
 SF         file name : /cvmfs/atlas.cern.ch/repo/sw/database/GroupData/xAODBTaggingEfficiency/13TeV/2020-21-13TeV-MC16-CDI-2021-04-16_v1.root

 CDI file build number: 12935107

 List of uncertainties to exclude:
	T:	extrapolation from charm

======= end of CalibrationDataInterfaceROOT instantiation ========
CalibrationDataInterface: retrieved container DL1r/AntiKt4EMPFlowJets_BTagging201903/FixedCutBEff_77/Light/410470_Eff (with comment: 'efficiencies from sample PowhegPythia8' and hadronisation setting 'Pythia8EvtGen')
CalibrationDataInterface: retrieved container DL1r/AntiKt4EMPFlowJets_BTagging201903/FixedCutBEff_77/Light/default_SF (with comment: 'negative_tag_Zjet+extrap[Run2MCcalib]' and hadronisation setting 'Pythia8EvtGen')
CalibrationDataEigenVariations: Removing 296 eigenvector variations leading to sub-tolerance effects, retaining 4 variations
btag Calib: reducing number of eigenvector variations for flavour Light to 4
CalibrationDataInterface: retrieved container DL1r/AntiKt4EMPFlowJets_BTagging201903/FixedCutBEff_77/C/410470_Eff (with comment: 'efficiencies from sample PowhegPythia8' and hadronisation setting 'Pythia8EvtGen')
CalibrationDataInterface: retrieved container DL1r/AntiKt4EMPFlowJets_BTagging201903/FixedCutBEff_77/C/default_SF (with comment: 'ttbarC+extrap[Run2MCcalib_ttC]' and hadronisation setting 'Pythia8EvtGen')
CalibrationDataEigenVariations: Removing 296 eigenvector variations leading to sub-tolerance effects, retaining 4 variations
btag Calib: reducing number of eigenvector variations for flavour C to 3
CalibrationDataInterface: retrieved container DL1r/AntiKt4EMPFlowJets_BTagging201903/FixedCutBEff_77/B/410470_Eff (with comment: 'efficiencies from sample PowhegPythia8' and hadronisation setting 'Pythia8EvtGen')
CalibrationDataInterface: retrieved container DL1r/AntiKt4EMPFlowJets_BTagging201903/FixedCutBEff_77/B/default_SF (with comment: 'ttbar_PDF+extrap[Run2MCcalib]' and hadronisation setting 'Pythia8EvtGen')
CalibrationDataEigenVariations: Removing 291 eigenvector variations leading to sub-tolerance effects, retaining 9 variations
btag Calib: reducing number of eigenvector variations for flavour B to 2
CalibrationDataInterface: retrieved container DL1r/AntiKt4EMPFlowJets_BTagging201903/FixedCutBEff_77/T/410470_Eff (with comment: 'efficiencies from sample PowhegPythia8' and hadronisation setting 'Pythia8EvtGen')
CalibrationDataInterface: retrieved container DL1r/AntiKt4EMPFlowJets_BTagging201903/FixedCutBEff_77/T/default_SF (with comment: 'ttbarC+addSys[newsys]+extrap[Run2MCcalib_ttC]' and hadronisation setting 'Pythia8EvtGen')
CalibrationDataEigenVariations: Removing 296 eigenvector variations leading to sub-tolerance effects, retaining 4 variations
btag Calib: reducing number of eigenvector variations for flavour T to 3
ToolSvc.BTaggingEffici...INFO    Using systematics model SFEigen
ToolSvc.METMaker         INFO    Initializing ToolSvc.METMaker...
ToolSvc.METMaker         INFO    Use jet selection criterion: Tight PFlow: 1
ToolSvc.JetCalibration...INFO    Initializing ToolSvc.JetCalibrationTool...
ToolSvc.JetCalibration...INFO    ===================================
ToolSvc.JetCalibration...INFO    Initializing the xAOD Jet Calibration Tool for AntiKt4EMPFlowjets
ToolSvc.JetCalibration...INFO    Reading global JES settings from: JES_MC16Recommendation_Consolidated_PFlow_Apr2019_Rel21.config
ToolSvc.JetCalibration...INFO    resolved in: /cvmfs/atlas.cern.ch/repo/sw/database/GroupData/JetCalibTools/CalibArea-00-04-82/CalibrationConfigs/JES_MC16Recommendation_Consolidated_PFlow_Apr2019_Rel21.config
ToolSvc.JetCalibration...INFO    Initializing pileup correction.
ToolSvc.JetCalibration...INFO    JetPileupCorrection: Starting scale: JetConstitScaleMomentum
ToolSvc.JetCalibration...INFO    Jet area pile up correction will be applied.
ToolSvc.JetCalibration...INFO    Reading residual jet-area pile-up correction factors from: /cvmfs/atlas.cern.ch/repo/sw/database/GroupData/JetCalibTools/CalibArea-00-04-82/CalibrationFactors/MC16a_Residual_pflow.config
ToolSvc.JetCalibration...INFO    Description: MC16 residual mu- and N_{PV}-dependent jet pileup corrections for R=0.4 EMPFlow
ToolSvc.JetCalibration...INFO    Initializing JES correction.
ToolSvc.JetCalibration...INFO    Reading absolute calibration factors from: /cvmfs/atlas.cern.ch/repo/sw/database/GroupData/JetCalibTools/CalibArea-00-04-82/CalibrationFactors/MC16a_MCJES_4EMPFlow_Oct2017.config
ToolSvc.JetCalibration...INFO    Description: MCJES derived in October 2017 for MC16
ToolSvc.JetCalibration...INFO    Initializing GSC correction.
ToolSvc.JetCalibration...INFO    Initializing the Global Sequential Calibration tool
ToolSvc.JetCalibration...INFO    GSC Tool has been initialized with binning and eta fit factors from: /cvmfs/atlas.cern.ch/repo/sw/database/GroupData/JetCalibTools/CalibArea-00-04-82/CalibrationFactors/MC16a_GSC_R21_PF_28Nov2017.root
ToolSvc.JetCalibration...INFO    Initializing jet smearing correction
ToolSvc.JetCalibration...INFO    Initializing the jet smearing correction tool
ToolSvc.JetCalibration...INFO    Reading from JetGSCScaleMomentum and writing to JetSmearedMomentum
ToolSvc.JetCalibration...INFO    ===================================
ToolSvc.JvtUpdateTool    INFO    Initializing JetVertexTaggerTool ToolSvc.JvtUpdateTool
ToolSvc.JvtUpdateTool    INFO      No track selector.
ToolSvc.JvtUpdateTool    INFO      Reading JVT file from:
    JetMomentTools/JVTlikelihood_20140805.root

ToolSvc.JvtUpdateTool    INFO                         resolved in  :
    /cvmfs/atlas.cern.ch/repo/sw/software/21.2/AnalysisBase/21.2.168/InstallArea/x86_64-centos7-gcc8-opt/data/JetMomentTools/JVTlikelihood_20140805.root


ToolSvc.JetForwardJvtToolINFO    Initializing ToolSvc.JetForwardJvtTool...
ToolSvc.JetUncertainti...INFO    Preparing to initialize the JetUncertaintiesTool named ToolSvc.JetUncertaintiesTool
ToolSvc.JetUncertainti...INFO    ================================================
ToolSvc.JetUncertainti...INFO      Initializing the JetUncertaintiesTool named ToolSvc.JetUncertaintiesTool
ToolSvc.JetUncertainti...INFO      Path is: ""
ToolSvc.JetUncertainti...INFO      CalibArea is: "CalibArea-08"
ToolSvc.JetUncertainti...INFO      IsData is: "false"
ToolSvc.JetUncertainti...INFO      Configuration file: "rel21/Fall2018/R4_CategoryReduction_FullJER.config"
ToolSvc.JetUncertainti...INFO        Location: /cvmfs/atlas.cern.ch/repo/sw/database/GroupData/JetUncertainties/CalibArea-08/rel21/Fall2018/R4_CategoryReduction_FullJER.config
ToolSvc.JetUncertainti...INFO      Uncertainty release: rel21_Fall2018
ToolSvc.JetUncertainti...INFO      Jet definition: AntiKt4EMPFlow
ToolSvc.JetUncertainti...INFO      MC type: MC16
ToolSvc.JetUncertainti...INFO      UncertaintyFile: "rel21/Fall2018/R4_AllComponents.root"
ToolSvc.JetUncertainti...INFO        Location: /cvmfs/atlas.cern.ch/repo/sw/database/GroupData/JetUncertainties/CalibArea-08/rel21/Fall2018/R4_AllComponents.root
ToolSvc.JetUncertainti...INFO      AnalysisFile: "analysisInputs/UnknownFlavourComp.root"
ToolSvc.JetUncertainti...INFO        Location: /cvmfs/atlas.cern.ch/repo/sw/database/GroupData/JetUncertainties/CalibArea-08/analysisInputs/UnknownFlavourComp.root
ToolSvc.JetUncertainti...INFO      NominalFourVecResData: "JER_Nominal_data,PtAbsEta,OnlyX"
ToolSvc.JetUncertainti...INFO      NominalFourVecResMC: "JER_Nominal_MCTYPE,PtAbsEta,OnlyX"
ToolSvc.JetUncertainti...INFO      ResolutionSmearOnlyMC: "false"
ToolSvc.JetUncertainti...INFO    
ToolSvc.JetUncertainti...INFO           JES uncert. comp.                        : Description
ToolSvc.JetUncertainti...INFO           -----------------                         ------------
ToolSvc.JetUncertainti...INFO        1. JET_EtaIntercalibration_Modelling        : Eta intercalibration: MC generator modelling uncertainty
ToolSvc.JetUncertainti...INFO        2. JET_EtaIntercalibration_TotalStat        : Eta intercalibration: statistical uncertainty
ToolSvc.JetUncertainti...INFO        3. JET_EtaIntercalibration_NonClosure_highE : Eta intercalibration: non-closure uncertainty, high E
ToolSvc.JetUncertainti...INFO        4. JET_EtaIntercalibration_NonClosure_negEta : Eta intercalibration: non-closure uncertainty, negative eta
ToolSvc.JetUncertainti...INFO        5. JET_EtaIntercalibration_NonClosure_posEta : Eta intercalibration: non-closure uncertainty, positive eta
ToolSvc.JetUncertainti...INFO        6. JET_Pileup_OffsetMu                      : Pileup: Offset, mu term
ToolSvc.JetUncertainti...INFO        7. JET_Pileup_OffsetNPV                     : Pileup: Offset, NPV term
ToolSvc.JetUncertainti...INFO        8. JET_Pileup_PtTerm                        : Pileup: Offset, pT term
ToolSvc.JetUncertainti...INFO        9. JET_Pileup_RhoTopology                   : Rho topology uncertainty (jet areas)
ToolSvc.JetUncertainti...INFO       10. JET_Flavor_Composition                   : Flavor composition uncertainty
ToolSvc.JetUncertainti...INFO       11. JET_Flavor_Response                      : Flavor response uncertainty (dominated by gluon response)
ToolSvc.JetUncertainti...INFO       12. JET_PunchThrough_MC16                    : Punch-through correction uncertainty
ToolSvc.JetUncertainti...INFO       13. JET_EffectiveNP_Statistical1             : Effective JES Uncertainty Statistical Component 1
ToolSvc.JetUncertainti...INFO       14. JET_EffectiveNP_Statistical2             : Effective JES Uncertainty Statistical Component 2
ToolSvc.JetUncertainti...INFO       15. JET_EffectiveNP_Statistical3             : Effective JES Uncertainty Statistical Component 3
ToolSvc.JetUncertainti...INFO       16. JET_EffectiveNP_Statistical4             : Effective JES Uncertainty Statistical Component 4
ToolSvc.JetUncertainti...INFO       17. JET_EffectiveNP_Statistical5             : Effective JES Uncertainty Statistical Component 5
ToolSvc.JetUncertainti...INFO       18. JET_EffectiveNP_Statistical6             : Effective JES Uncertainty Statistical Component 6
ToolSvc.JetUncertainti...INFO       19. JET_EffectiveNP_Modelling1               : Effective JES Uncertainty Modelling Component 1
ToolSvc.JetUncertainti...INFO       20. JET_EffectiveNP_Modelling2               : Effective JES Uncertainty Modelling Component 2
ToolSvc.JetUncertainti...INFO       21. JET_EffectiveNP_Modelling3               : Effective JES Uncertainty Modelling Component 3
ToolSvc.JetUncertainti...INFO       22. JET_EffectiveNP_Modelling4               : Effective JES Uncertainty Modelling Component 4
ToolSvc.JetUncertainti...INFO       23. JET_EffectiveNP_Detector1                : Effective JES Uncertainty Detector Component 1
ToolSvc.JetUncertainti...INFO       24. JET_EffectiveNP_Detector2                : Effective JES Uncertainty Detector Component 2
ToolSvc.JetUncertainti...INFO       25. JET_EffectiveNP_Mixed1                   : Effective JES Uncertainty Mixed Component 1
ToolSvc.JetUncertainti...INFO       26. JET_EffectiveNP_Mixed2                   : Effective JES Uncertainty Mixed Component 2
ToolSvc.JetUncertainti...INFO       27. JET_EffectiveNP_Mixed3                   : Effective JES Uncertainty Mixed Component 3
ToolSvc.JetUncertainti...INFO       28. JET_SingleParticle_HighPt                : High pT term (r20.7 version)
ToolSvc.JetUncertainti...INFO       29. JET_RelativeNonClosure_MC16              : Closure of the calibration, relative to MC12a
ToolSvc.JetUncertainti...INFO       30. JET_BJES_Response                        : JES uncertainty for b jets
ToolSvc.JetUncertainti...INFO       31. JET_JER_DataVsMC_MC16                    : NP covering when JER(data) < JER(MC)
ToolSvc.JetUncertainti...INFO       32. JET_JER_EffectiveNP_1                    : Effective JER Uncertainty Component 1
ToolSvc.JetUncertainti...INFO       33. JET_JER_EffectiveNP_2                    : Effective JER Uncertainty Component 2
ToolSvc.JetUncertainti...INFO       34. JET_JER_EffectiveNP_3                    : Effective JER Uncertainty Component 3
ToolSvc.JetUncertainti...INFO       35. JET_JER_EffectiveNP_4                    : Effective JER Uncertainty Component 4
ToolSvc.JetUncertainti...INFO       36. JET_JER_EffectiveNP_5                    : Effective JER Uncertainty Component 5
ToolSvc.JetUncertainti...INFO       37. JET_JER_EffectiveNP_6                    : Effective JER Uncertainty Component 6
ToolSvc.JetUncertainti...INFO       38. JET_JER_EffectiveNP_7                    : Effective JER Uncertainty Component 7
ToolSvc.JetUncertainti...INFO       39. JET_JER_EffectiveNP_8                    : Effective JER Uncertainty Component 8
ToolSvc.JetUncertainti...INFO       40. JET_JER_EffectiveNP_9                    : Effective JER Uncertainty Component 9
ToolSvc.JetUncertainti...INFO       41. JET_JER_EffectiveNP_10                   : Effective JER Uncertainty Component 10
ToolSvc.JetUncertainti...INFO       42. JET_JER_EffectiveNP_11                   : Effective JER Uncertainty Component 11
ToolSvc.JetUncertainti...INFO       43. JET_JER_EffectiveNP_12restTerm           : Effective JER Uncertainty Component 12
ToolSvc.JetUncertainti...INFO       Found and read in 55 individual components into 43 component groups of which 42 are recommended
ToolSvc.JetUncertainti...INFO    ================================================
ToolSvc.METSystTool      INFO    Searching for configFile: TrackSoftTerms-pflow.config
ToolSvc.METSystTool      INFO    Configuring from file : /cvmfs/atlas.cern.ch/repo/sw/database/GroupData/METUtilities/run2_13TeV/TrackSoftTerms-pflow.config
ToolSvc.METSystTool      INFO    Will read histograms from : METUtilities/run2_13TeV/FullRun2_EMPFlow_TSTSystematics.root
ToolSvc.METSystTool      INFO    Systpath :/
ToolSvc.METSystTool      INFO    Extracted histogram path : /cvmfs/atlas.cern.ch/repo/sw/database/GroupData/METUtilities/run2_13TeV/FullRun2_EMPFlow_TSTSystematics.root
ToolSvc.METSystTool      INFO    AffectingSystematics are:
ToolSvc.METSystTool      INFO    MET_SoftTrk_ResoCorr
ToolSvc.METSystTool      INFO    MET_SoftTrk_ResoPara
ToolSvc.METSystTool      INFO    MET_SoftTrk_ResoPerp
ToolSvc.METSystTool      INFO    MET_SoftTrk_Scale__1down
ToolSvc.METSystTool      INFO    MET_SoftTrk_Scale__1up
sys name: 
Running on systematic: 
Package.UserCode         INFO    Opening /sampa/ATLAS_0/Datasets/MC/Sh_2211/DAOD_PHYS/Ztautau_p4355/mc16_13TeV.700330.Sh_2211_Ztautau_LH_maxHTpTV2_CFilterBVeto.deriv.DAOD_PHYS.e8351_s3126_r10724_p4355/DAOD_PHYS.25807555._000073.pool.root.1
ToolSvc.xAODConfigTool   INFO    Loaded configuration:
ToolSvc.xAODConfigTool   INFO      SMK = 2216, L1PSK = 76, HLTPSK = 260
ToolSvc.IsolationCorre...INFO    is MC = 1, use AFII = 0
Package.UserCode         INFO     Processing file: /sampa/ATLAS_0/Datasets/MC/Sh_2211/DAOD_PHYS/Ztautau_p4355/mc16_13TeV.700330.Sh_2211_Ztautau_LH_maxHTpTV2_CFilterBVeto.deriv.DAOD_PHYS.e8351_s3126_r10724_p4355/DAOD_PHYS.25807555._000073.pool.root.1
Package.UserCode         INFO     Entries in file: 12000
 Processing event 0 / 12000ToolSvc.TrigDecisionTool INFO    updating config with SMK: 2216 and L1PSK: 76 and HLTPSK: 260
CP::TPileupReweighting... INFO    Initializing the subtool..
ToolSvc.JvtTool          INFO     Path found = /cvmfs/atlas.cern.ch/repo/sw/database/GroupData/JetJvtEfficiency/Moriond2018/JvtSFFile_EMPFlowJets.root
ToolSvc.JvtTool_fwd      INFO     Path found = /cvmfs/atlas.cern.ch/repo/sw/database/GroupData/JetJvtEfficiency/May2020/fJvtSFFile.EMPFlow.root
ToolSvc.TauTruthMatchi...INFO    TruthJets container with name AntiKt4TruthJets is not available, won't perform matching to truth jets
 Processing event 1000 / 12000 Processing event 2000 / 12000 Processing event 3000 / 12000 Processing event 4000 / 12000 Processing event 5000 / 12000 Processing event 6000 / 12000 Processing event 7000 / 12000 Processing event 8000 / 12000 Processing event 9000 / 12000 Processing event 10000 / 12000 Processing event 11000 / 12000Package.UserCode         INFO    Opening /sampa/ATLAS_0/Datasets/MC/Sh_2211/DAOD_PHYS/Ztautau_p4355/mc16_13TeV.700330.Sh_2211_Ztautau_LH_maxHTpTV2_CFilterBVeto.deriv.DAOD_PHYS.e8351_s3126_r10724_p4355/DAOD_PHYS.25807555._000074.pool.root.1
ToolSvc.xAODConfigTool   INFO    Loaded configuration:
ToolSvc.xAODConfigTool   INFO      SMK = 2216, L1PSK = 76, HLTPSK = 260
ToolSvc.IsolationCorre...INFO    is MC = 1, use AFII = 0
Package.UserCode         INFO     Processing file: /sampa/ATLAS_0/Datasets/MC/Sh_2211/DAOD_PHYS/Ztautau_p4355/mc16_13TeV.700330.Sh_2211_Ztautau_LH_maxHTpTV2_CFilterBVeto.deriv.DAOD_PHYS.e8351_s3126_r10724_p4355/DAOD_PHYS.25807555._000074.pool.root.1
Package.UserCode         INFO     Entries in file: 12000
 Processing event 0 / 12000ToolSvc.TrigDecisionTool INFO    updating config with SMK: 2216 and L1PSK: 76 and HLTPSK: 260
 Processing event 1000 / 12000 Processing event 2000 / 12000 Processing event 3000 / 12000 Processing event 4000 / 12000 Processing event 5000 / 12000 Processing event 6000 / 12000 Processing event 7000 / 12000 Processing event 8000 / 12000 Processing event 9000 / 12000 Processing event 10000 / 12000ToolSvc.AsgPhotonEffic...WARNING No isolation scale factor provided for et 1060.1GeV Returning SF for 1000GeV
ToolSvc.AsgPhotonEffic...WARNING No isolation scale factor provided for et 1060.1GeV Returning SF for 1000GeV
ToolSvc.AsgPhotonEffic...WARNING No isolation scale factor provided for et 1060.1GeV Returning SF for 1000GeV
ToolSvc.AsgPhotonEffic...WARNING No isolation scale factor provided for et 1060.1GeV Returning SF for 1000GeV
 Processing event 11000 / 12000Package.UserCode         INFO    Opening /sampa/ATLAS_0/Datasets/MC/Sh_2211/DAOD_PHYS/Ztautau_p4355/mc16_13TeV.700330.Sh_2211_Ztautau_LH_maxHTpTV2_CFilterBVeto.deriv.DAOD_PHYS.e8351_s3126_r10724_p4355/DAOD_PHYS.25807555._000075.pool.root.1
ToolSvc.xAODConfigTool   INFO    Loaded configuration:
ToolSvc.xAODConfigTool   INFO      SMK = 2216, L1PSK = 76, HLTPSK = 260
ToolSvc.IsolationCorre...INFO    is MC = 1, use AFII = 0
Package.UserCode         INFO     Processing file: /sampa/ATLAS_0/Datasets/MC/Sh_2211/DAOD_PHYS/Ztautau_p4355/mc16_13TeV.700330.Sh_2211_Ztautau_LH_maxHTpTV2_CFilterBVeto.deriv.DAOD_PHYS.e8351_s3126_r10724_p4355/DAOD_PHYS.25807555._000075.pool.root.1
Package.UserCode         INFO     Entries in file: 12000
 Processing event 0 / 12000ToolSvc.TrigDecisionTool INFO    updating config with SMK: 2216 and L1PSK: 76 and HLTPSK: 260
 Processing event 1000 / 12000 Processing event 2000 / 12000 Processing event 3000 / 12000 Processing event 4000 / 12000 Processing event 5000 / 12000 Processing event 6000 / 12000 Processing event 7000 / 12000 Processing event 8000 / 12000 Processing event 9000 / 12000 Processing event 10000 / 12000 Processing event 11000 / 12000Package.UserCode         INFO    Opening /sampa/ATLAS_0/Datasets/MC/Sh_2211/DAOD_PHYS/Ztautau_p4355/mc16_13TeV.700330.Sh_2211_Ztautau_LH_maxHTpTV2_CFilterBVeto.deriv.DAOD_PHYS.e8351_s3126_r10724_p4355/DAOD_PHYS.25807555._000076.pool.root.1
ToolSvc.xAODConfigTool   INFO    Loaded configuration:
ToolSvc.xAODConfigTool   INFO      SMK = 2216, L1PSK = 76, HLTPSK = 260
ToolSvc.IsolationCorre...INFO    is MC = 1, use AFII = 0
Package.UserCode         INFO     Processing file: /sampa/ATLAS_0/Datasets/MC/Sh_2211/DAOD_PHYS/Ztautau_p4355/mc16_13TeV.700330.Sh_2211_Ztautau_LH_maxHTpTV2_CFilterBVeto.deriv.DAOD_PHYS.e8351_s3126_r10724_p4355/DAOD_PHYS.25807555._000076.pool.root.1
Package.UserCode         INFO     Entries in file: 12000
 Processing event 0 / 12000ToolSvc.TrigDecisionTool INFO    updating config with SMK: 2216 and L1PSK: 76 and HLTPSK: 260
 Processing event 1000 / 12000 Processing event 2000 / 12000 Processing event 3000 / 12000 Processing event 4000 / 12000 Processing event 5000 / 12000 Processing event 6000 / 12000 Processing event 7000 / 12000 Processing event 8000 / 12000 Processing event 9000 / 12000 Processing event 10000 / 12000 Processing event 11000 / 12000Package.UserCode         INFO    Opening /sampa/ATLAS_0/Datasets/MC/Sh_2211/DAOD_PHYS/Ztautau_p4355/mc16_13TeV.700330.Sh_2211_Ztautau_LH_maxHTpTV2_CFilterBVeto.deriv.DAOD_PHYS.e8351_s3126_r10724_p4355/DAOD_PHYS.25807555._000077.pool.root.1
ToolSvc.xAODConfigTool   INFO    Loaded configuration:
ToolSvc.xAODConfigTool   INFO      SMK = 2216, L1PSK = 76, HLTPSK = 260
ToolSvc.IsolationCorre...INFO    is MC = 1, use AFII = 0
Package.UserCode         INFO     Processing file: /sampa/ATLAS_0/Datasets/MC/Sh_2211/DAOD_PHYS/Ztautau_p4355/mc16_13TeV.700330.Sh_2211_Ztautau_LH_maxHTpTV2_CFilterBVeto.deriv.DAOD_PHYS.e8351_s3126_r10724_p4355/DAOD_PHYS.25807555._000077.pool.root.1
Package.UserCode         INFO     Entries in file: 12000
 Processing event 0 / 12000ToolSvc.TrigDecisionTool INFO    updating config with SMK: 2216 and L1PSK: 76 and HLTPSK: 260
 Processing event 1000 / 12000 Processing event 2000 / 12000ToolSvc.AsgPhotonEffic...WARNING No scale factor provided for et 2182.26GeV Returning SF for 1500GeV
ToolSvc.AsgPhotonEffic...WARNING No scale factor provided for et 2182.26GeV Returning SF for 1500GeV
ToolSvc.AsgPhotonEffic...WARNING No scale factor provided for et 2182.26GeV Returning SF for 1500GeV
ToolSvc.AsgPhotonEffic...WARNING No isolation scale factor provided for et 2182.26GeV Returning SF for 1000GeV
ToolSvc.AsgPhotonEffic...WARNING No isolation scale factor provided for et 2182.26GeV Returning SF for 1000GeV
ToolSvc.AsgPhotonEffic...WARNING No isolation scale factor provided for et 2182.26GeV Returning SF for 1000GeV
ToolSvc.AsgPhotonEffic...WARNING No isolation scale factor provided for et 2182.26GeV Returning SF for 1000GeV
 Processing event 3000 / 12000 Processing event 4000 / 12000 Processing event 5000 / 12000 Processing event 6000 / 12000 Processing event 7000 / 12000 Processing event 8000 / 12000 Processing event 9000 / 12000 Processing event 10000 / 12000 Processing event 11000 / 12000Package.UserCode         INFO    Opening /sampa/ATLAS_0/Datasets/MC/Sh_2211/DAOD_PHYS/Ztautau_p4355/mc16_13TeV.700330.Sh_2211_Ztautau_LH_maxHTpTV2_CFilterBVeto.deriv.DAOD_PHYS.e8351_s3126_r10724_p4355/DAOD_PHYS.25807555._000078.pool.root.1
ToolSvc.xAODConfigTool   INFO    Loaded configuration:
ToolSvc.xAODConfigTool   INFO      SMK = 2216, L1PSK = 76, HLTPSK = 260
ToolSvc.IsolationCorre...INFO    is MC = 1, use AFII = 0
Package.UserCode         INFO     Processing file: /sampa/ATLAS_0/Datasets/MC/Sh_2211/DAOD_PHYS/Ztautau_p4355/mc16_13TeV.700330.Sh_2211_Ztautau_LH_maxHTpTV2_CFilterBVeto.deriv.DAOD_PHYS.e8351_s3126_r10724_p4355/DAOD_PHYS.25807555._000078.pool.root.1
Package.UserCode         INFO     Entries in file: 12000
 Processing event 0 / 12000ToolSvc.TrigDecisionTool INFO    updating config with SMK: 2216 and L1PSK: 76 and HLTPSK: 260
 Processing event 1000 / 12000 Processing event 2000 / 12000 Processing event 3000 / 12000 Processing event 4000 / 12000 Processing event 5000 / 12000 Processing event 6000 / 12000ToolSvc.AsgPhotonEffic...WARNING No isolation scale factor provided for et 1445.44GeV Returning SF for 1000GeV
ToolSvc.AsgPhotonEffic...WARNING No isolation scale factor provided for et 1445.44GeV Returning SF for 1000GeV
ToolSvc.AsgPhotonEffic...WARNING No isolation scale factor provided for et 1445.44GeV Returning SF for 1000GeV
ToolSvc.AsgPhotonEffic...WARNING No isolation scale factor provided for et 1445.44GeV Returning SF for 1000GeV
 Processing event 7000 / 12000 Processing event 8000 / 12000 Processing event 9000 / 12000 Processing event 10000 / 12000 Processing event 11000 / 12000Package.UserCode         INFO    Opening /sampa/ATLAS_0/Datasets/MC/Sh_2211/DAOD_PHYS/Ztautau_p4355/mc16_13TeV.700330.Sh_2211_Ztautau_LH_maxHTpTV2_CFilterBVeto.deriv.DAOD_PHYS.e8351_s3126_r10724_p4355/DAOD_PHYS.25807555._000079.pool.root.1
ToolSvc.xAODConfigTool   INFO    Loaded configuration:
ToolSvc.xAODConfigTool   INFO      SMK = 2216, L1PSK = 76, HLTPSK = 260
ToolSvc.IsolationCorre...INFO    is MC = 1, use AFII = 0
Package.UserCode         INFO     Processing file: /sampa/ATLAS_0/Datasets/MC/Sh_2211/DAOD_PHYS/Ztautau_p4355/mc16_13TeV.700330.Sh_2211_Ztautau_LH_maxHTpTV2_CFilterBVeto.deriv.DAOD_PHYS.e8351_s3126_r10724_p4355/DAOD_PHYS.25807555._000079.pool.root.1
Package.UserCode         INFO     Entries in file: 12000
 Processing event 0 / 12000ToolSvc.TrigDecisionTool INFO    updating config with SMK: 2216 and L1PSK: 76 and HLTPSK: 260
 Processing event 1000 / 12000 Processing event 2000 / 12000 Processing event 3000 / 12000 Processing event 4000 / 12000 Processing event 5000 / 12000 Processing event 6000 / 12000 Processing event 7000 / 12000 Processing event 8000 / 12000 Processing event 9000 / 12000 Processing event 10000 / 12000ToolSvc.AsgPhotonEffic...WARNING No isolation scale factor provided for et 1002.18GeV Returning SF for 1000GeV
ToolSvc.AsgPhotonEffic...WARNING No isolation scale factor provided for et 1002.18GeV Returning SF for 1000GeV
ToolSvc.AsgPhotonEffic...WARNING No isolation scale factor provided for et 1002.18GeV Returning SF for 1000GeV
ToolSvc.AsgPhotonEffic...WARNING No isolation scale factor provided for et 1002.18GeV Returning SF for 1000GeV
 Processing event 11000 / 12000Package.UserCode         INFO    Opening /sampa/ATLAS_0/Datasets/MC/Sh_2211/DAOD_PHYS/Ztautau_p4355/mc16_13TeV.700330.Sh_2211_Ztautau_LH_maxHTpTV2_CFilterBVeto.deriv.DAOD_PHYS.e8351_s3126_r10724_p4355/DAOD_PHYS.25807555._000080.pool.root.1
ToolSvc.xAODConfigTool   INFO    Loaded configuration:
ToolSvc.xAODConfigTool   INFO      SMK = 2216, L1PSK = 76, HLTPSK = 260
ToolSvc.IsolationCorre...INFO    is MC = 1, use AFII = 0
Package.UserCode         INFO     Processing file: /sampa/ATLAS_0/Datasets/MC/Sh_2211/DAOD_PHYS/Ztautau_p4355/mc16_13TeV.700330.Sh_2211_Ztautau_LH_maxHTpTV2_CFilterBVeto.deriv.DAOD_PHYS.e8351_s3126_r10724_p4355/DAOD_PHYS.25807555._000080.pool.root.1
Package.UserCode         INFO     Entries in file: 18000
 Processing event 0 / 18000ToolSvc.TrigDecisionTool INFO    updating config with SMK: 2216 and L1PSK: 76 and HLTPSK: 260
 Processing event 1000 / 18000 Processing event 2000 / 18000 Processing event 3000 / 18000 Processing event 4000 / 18000 Processing event 5000 / 18000 Processing event 6000 / 18000 Processing event 7000 / 18000 Processing event 8000 / 18000 Processing event 9000 / 18000 Processing event 10000 / 18000 Processing event 11000 / 18000 Processing event 12000 / 18000 Processing event 13000 / 18000 Processing event 14000 / 18000 Processing event 15000 / 18000 Processing event 16000 / 18000 Processing event 17000 / 18000=====================================
End of event processing
------------------
RECO EVENT COUNTS
------------------
Total                             102000    7.11844e+11
Trigger                                0              0
1 loose tau                            0              0
1 medium tau                           0              0
1 medium tau & 1 loose tau             0              0
2 medium taus                          0              0
Opposite charge                        0              0
mll > 50GeV                            0              0
Jet cleaning                           0              0
------------------
TRUTH EVENT COUNTS
------------------
Total                             102000    7.11844e+11
1 loose tau                            0              0
1 medium tau                           0              0
1 medium tau & 1 loose tau             0              0
2 medium taus                          0              0
Opposite charge                        0              0
mll > 50GeV                            0              0
Detector-level object count summaries: nOverlap / nSelected / nTotal
Number overlap elecs:     519 / 24516 / 978934 
Number overlap muons:    4336 / 32393 / 32393 
Number overlap jets:    41729 / 321172 / 321172 
Number overlap taus:      562 / 31278 / 31278 
Particle-level object count summaries: nOverlap / nSelected / nTotal
Number overlap elecs:   25994 / 26750 / 322066 
Number overlap muons:   48400 / 49524 / 83634 
Number overlap jets:    223692 / 262764 / 999258 
Number overlap taus:    67506 / 67506 / 205940 

All done. Bye!
eigenvariations destructor: removing 4 eigenvariations
eigenvariations destructor: removing 3 eigenvariations
eigenvariations destructor: removing 2 eigenvariations
eigenvariations destructor: removing 3 eigenvariations
		CalibrationDataInterfaceROOT object out-of-bounds summary:
			DL1r/AntiKt4EMPFlowJets_BTagging201903/FixedCutBEff_77/Light/default_SF general: 10396, extrapolated: 33919
			DL1r/AntiKt4EMPFlowJets_BTagging201903/FixedCutBEff_77/C/default_SF general: 4662, extrapolated: 4562
			DL1r/AntiKt4EMPFlowJets_BTagging201903/FixedCutBEff_77/B/default_SF general: 0, extrapolated: 453
			DL1r/AntiKt4EMPFlowJets_BTagging201903/FixedCutBEff_77/T/default_SF general: 1139, extrapolated: 13448
/sampa/ATLAS_0/Datasets/MC/Sh_2211/DAOD_PHYS/Ztautau_p4355/
---->  Using  8  files  from  ['/sampa/ATLAS_0/Datasets/MC/Sh_2211/DAOD_PHYS/Ztautau_p4355/mc16_13TeV.700330.Sh_2211_Ztautau_LH_maxHTpTV2_CFilterBVeto.deriv.DAOD_PHYS.e8351_s3126_r10724_p4355']  : 
DAOD_PHYS.25807555._000073.pool.root.1
DAOD_PHYS.25807555._000074.pool.root.1
DAOD_PHYS.25807555._000075.pool.root.1
DAOD_PHYS.25807555._000076.pool.root.1
DAOD_PHYS.25807555._000077.pool.root.1
DAOD_PHYS.25807555._000078.pool.root.1
DAOD_PHYS.25807555._000079.pool.root.1
DAOD_PHYS.25807555._000080.pool.root.1
----> Histograms will be saved to  Output/DTA_output_9.root
----> DTA-run /sampa/ATLAS_0/Datasets/MC/Sh_2211/DAOD_PHYS/Ztautau_p4355/mc16_13TeV.700330.Sh_2211_Ztautau_LH_maxHTpTV2_CFilterBVeto.deriv.DAOD_PHYS.e8351_s3126_r10724_p4355/DAOD_PHYS.25807555._000073.pool.root.1,/sampa/ATLAS_0/Datasets/MC/Sh_2211/DAOD_PHYS/Ztautau_p4355/mc16_13TeV.700330.Sh_2211_Ztautau_LH_maxHTpTV2_CFilterBVeto.deriv.DAOD_PHYS.e8351_s3126_r10724_p4355/DAOD_PHYS.25807555._000074.pool.root.1,/sampa/ATLAS_0/Datasets/MC/Sh_2211/DAOD_PHYS/Ztautau_p4355/mc16_13TeV.700330.Sh_2211_Ztautau_LH_maxHTpTV2_CFilterBVeto.deriv.DAOD_PHYS.e8351_s3126_r10724_p4355/DAOD_PHYS.25807555._000075.pool.root.1,/sampa/ATLAS_0/Datasets/MC/Sh_2211/DAOD_PHYS/Ztautau_p4355/mc16_13TeV.700330.Sh_2211_Ztautau_LH_maxHTpTV2_CFilterBVeto.deriv.DAOD_PHYS.e8351_s3126_r10724_p4355/DAOD_PHYS.25807555._000076.pool.root.1,/sampa/ATLAS_0/Datasets/MC/Sh_2211/DAOD_PHYS/Ztautau_p4355/mc16_13TeV.700330.Sh_2211_Ztautau_LH_maxHTpTV2_CFilterBVeto.deriv.DAOD_PHYS.e8351_s3126_r10724_p4355/DAOD_PHYS.25807555._000077.pool.root.1,/sampa/ATLAS_0/Datasets/MC/Sh_2211/DAOD_PHYS/Ztautau_p4355/mc16_13TeV.700330.Sh_2211_Ztautau_LH_maxHTpTV2_CFilterBVeto.deriv.DAOD_PHYS.e8351_s3126_r10724_p4355/DAOD_PHYS.25807555._000078.pool.root.1,/sampa/ATLAS_0/Datasets/MC/Sh_2211/DAOD_PHYS/Ztautau_p4355/mc16_13TeV.700330.Sh_2211_Ztautau_LH_maxHTpTV2_CFilterBVeto.deriv.DAOD_PHYS.e8351_s3126_r10724_p4355/DAOD_PHYS.25807555._000079.pool.root.1,/sampa/ATLAS_0/Datasets/MC/Sh_2211/DAOD_PHYS/Ztautau_p4355/mc16_13TeV.700330.Sh_2211_Ztautau_LH_maxHTpTV2_CFilterBVeto.deriv.DAOD_PHYS.e8351_s3126_r10724_p4355/DAOD_PHYS.25807555._000080.pool.root.1 Output/DTA_output_9.root
*******************************************
** -rw-r--r-- 1 cdaumann cdaumann 450897 Aug 11 22:58 Output/DTA_output_9.root
** Now will copy  Output/DTA_output_9.root  to  /sampa/cdaumann/ATLAS/Ztautau/Results/Sh_2211/Ztautau_p4355/LH/CFilterBVeto/mc16e/2021-08-11
*******************************************
'Output/DTA_output_9.root' -> '/sampa/cdaumann/ATLAS/Ztautau/Results/Sh_2211/Ztautau_p4355/LH/CFilterBVeto/mc16e/2021-08-11/DTA_output_9.root'
  
************************
************************
******* D O N E ! ******
************************
************************
  
